Episode,Step,Avg_Success,Avg_Reward,Avg_Cost
0,28,0,-28.90709255461097,0
1,132,0,-53.97133369584986,0
2,126,0,-48.133705046027956,0
3,94,25,-33.60027878452097,0
4,129,20,-52.71575110492593,0
5,187,16,-71.89076507912185,0
6,177,14,-67.18215853197324,0
7,164,12,-67.63002639394631,0
8,157,11,-63.542427195279515,0
9,192,10,-64.88699215423172,0
10,204,9,-64.97644519848342,0
11,200,8,-66.6226479448781,0
12,195,7,-66.1064740187806,0
13,199,7,-69.44648861536858,0
14,189,6,-65.66489136565652,0
15,178,6,-63.064069713731534,0
16,169,5,-61.89141445271833,0
17,162,5,-61.64715699193084,0
18,157,5,-64.28688787322362,0
19,153,5,-66.17182258593564,0
20,147,4,-65.14131609488673,0
21,140,9,-62.09012409622457,0
22,136,8,-61.48209560284929,0
23,133,8,-59.70177696791842,0
24,128,12,-56.712721544177576,0
25,131,11,-55.95201219318513,0
26,127,11,-55.72510660173676,0
27,139,10,-61.49310792231477,0
28,135,10,-60.653921810320966,0
29,131,10,-59.1539964069615,0
30,128,12,-57.36571144147786,0
31,126,12,-56.08696139220132,0
32,126,12,-54.9001118429912,0
33,125,11,-54.93710958287472,0
34,124,11,-56.200867641002134,0
35,128,13,-55.16223404113188,0
36,129,13,-54.117047937986996,0
37,133,13,-57.053066432123615,0
38,136,12,-56.94037552096159,0
39,134,12,-55.647838163626055,0
40,131,14,-54.04667137914737,0
41,136,14,-56.11402186552941,0
42,133,13,-55.47010294048511,0
43,135,13,-57.13554138175387,0
44,139,13,-57.558202857228935,0
45,137,13,-58.03371437827532,0
46,135,12,-57.18771644495424,0
47,132,12,-56.39487514496772,0
48,130,12,-55.92210042932207,0
49,127,12,-55.05972307832221,0
50,128,11,-56.35552932406504,0
51,128,11,-56.16816448993526,0
52,128,11,-56.026721438549856,0
53,130,11,-57.1071964039485,0
54,129,10,-57.211781967464184,0
55,129,10,-56.68259623301011,0
56,128,10,-56.66882200377283,0
57,126,12,-55.93951738266002,0
58,133,11,-60.379397587142165,0
59,132,11,-59.627059345746645,0
60,130,11,-58.77175628471864,0
61,131,11,-58.0473932867929,0
62,136,11,-57.75376508725977,0
63,134,10,-56.86558693995905,0
64,133,10,-56.248538007575654,0
65,132,10,-55.48269653190529,0
66,131,11,-54.564622454893154,0
67,132,11,-54.36731123658446,0
68,131,11,-54.22809663448948,0
69,133,11,-54.255540671549205,0
70,135,11,-53.89262772873004,0
71,135,11,-53.8094523127008,0
72,140,10,-53.8130254067279,0
73,139,12,-53.28786203320109,0
74,141,12,-55.354770665409426,0
75,140,11,-55.61340289043159,0
76,141,11,-56.33887373759686,0
77,141,11,-56.97987766282835,0
78,141,11,-57.71307694781251,0
79,140,11,-57.11902362267779,0
80,139,11,-56.488447712902534,0
81,139,10,-56.098495059749126,0
82,137,10,-55.59500299586145,0
83,136,10,-55.32286201976738,0
84,135,10,-55.36115249938167,0
85,134,10,-54.774409003882504,0
86,133,10,-54.26895864773784,0
87,134,10,-54.013586157147735,0
88,133,10,-53.85623397139326,0
89,132,10,-54.31521586380656,0
90,131,9,-54.24420916282845,0
91,130,10,-54.15846777359716,0
92,129,10,-53.80825639403983,0
93,130,10,-54.00294736272834,0
94,130,10,-53.51650215756455,0
95,129,11,-53.10627784954199,0
96,128,11,-52.57940900573228,0
97,126,11,-52.06329258730644,0
98,125,11,-51.557602763192236,0
99,124,11,-51.06202673556031,0
100,124,11,-50.7929558100142,0
101,121,11,-50.149267349849175,0
102,120,11,-49.83317042942198,0
103,120,10,-49.953170429421974,0
104,118,10,-48.68139402555652,0
105,113,10,-47.08156547185702,0
106,115,10,-48.0513055297708,0
107,114,10,-47.62758646415509,0
108,113,10,-47.89082173715381,0
109,110,10,-48.16953325016371,0
110,107,10,-47.6527789120268,0
111,106,10,-47.27070132946161,0
112,105,11,-46.77987552375833,0
113,106,11,-46.54731159260568,0
114,105,11,-46.67414587996587,0
115,105,12,-46.33529038795039,0
116,106,13,-46.14547033567695,0
117,107,14,-45.940215628533885,0
118,107,14,-44.879497838937326,0
119,107,14,-43.900126609601294,0
120,107,14,-43.471879938511286,0
121,109,13,-45.1275966121631,0
122,109,13,-44.71112377621791,0
123,110,13,-45.118800862534144,0
124,112,12,-45.933161614091375,0
125,110,12,-45.60803898759744,0
126,112,12,-45.30143231762604,0
127,108,12,-43.19155346022312,0
128,109,12,-42.97208031875263,0
129,110,12,-43.14094200051676,0
130,110,11,-43.6862530490353,0
131,111,11,-44.01187298842523,0
132,110,11,-43.90252152209136,0
133,110,11,-43.3840237493656,0
134,110,11,-42.46068327328901,0
135,111,10,-42.86854010938232,0
136,110,10,-42.84797483403115,0
137,108,10,-41.661147258947004,0
138,111,10,-43.509728548985706,0
139,111,10,-44.06513000324856,0
140,115,9,-44.888677016945714,0
141,111,9,-43.52078582536988,0
142,112,9,-43.377911047728816,0
143,110,9,-42.1106523498793,0
144,107,9,-41.5082212666016,0
145,107,9,-40.84847448953215,0
146,108,9,-42.59317575022632,0
147,109,9,-42.6328280659681,0
148,113,9,-42.65067416114205,0
149,118,9,-46.01413424414772,0
150,117,9,-45.036181684902616,0
151,116,9,-44.73328030127186,0
152,114,9,-44.537229050394,0
153,114,9,-45.68154673412138,0
154,114,9,-45.186367937082,0
155,113,9,-44.968439882607164,0
156,113,9,-45.09020033667546,0
157,114,8,-45.731896820302424,0
158,110,8,-42.630158974709104,0
159,109,8,-42.5381496374069,0
160,109,8,-42.47766150430758,0
161,107,8,-42.40959294933075,0
162,105,8,-42.272205722207254,0
163,105,8,-42.58200162190694,0
164,105,8,-42.73962504996539,0
165,105,8,-43.49668314837147,0
166,106,7,-43.77574159300187,0
167,105,7,-43.74027352823415,0
168,104,7,-43.54637772688654,0
169,103,7,-43.70899343257591,0
170,101,7,-43.98351891460213,0
171,102,7,-44.29572153692993,0
172,99,7,-44.161818881977275,0
173,98,6,-44.20417344379206,0
174,98,6,-42.41127953894193,0
175,99,6,-42.370679741300904,0
176,100,6,-41.55964828126604,0
177,99,6,-40.62426231025036,0
178,98,6,-40.38199495717235,0
179,97,6,-40.49825574118431,0
180,97,7,-40.33642220286735,0
181,98,7,-41.18673862318094,0
182,97,7,-41.111234791785435,0
183,98,7,-40.86623869184478,0
184,103,7,-41.05751157039019,0
185,108,7,-41.50346394495543,0
186,107,8,-41.2720866201343,0
187,107,8,-41.263544404599386,0
188,109,8,-41.01920862752529,0
189,109,8,-40.49288191049715,0
190,110,8,-40.75150937356253,0
191,111,7,-40.45112625993224,0
192,111,7,-40.27337496154769,0
193,109,7,-39.638815696014,0
194,108,7,-39.6355620374685,0
195,108,6,-39.73934017920371,0
196,108,6,-39.77518556309707,0
197,109,6,-41.14072780382074,0
198,110,6,-41.233050802760005,0
199,111,6,-41.36159521313673,0
200,111,6,-41.42761842290718,0
201,113,6,-41.857181309751816,0
202,113,6,-41.946640781562145,0
203,113,7,-41.7954038795169,0
204,116,7,-42.70205552386814,0
205,117,7,-42.773296361956774,0
206,116,7,-41.864699254680225,0
207,116,8,-41.48076730601836,0
208,116,9,-40.79867357274053,0
209,117,9,-39.97638844200239,0
210,120,9,-40.726193410530556,0
211,124,9,-40.72655531175755,0
212,125,8,-41.22795427730272,0
213,122,8,-40.37583007221918,0
214,124,8,-40.41109954862623,0
215,128,7,-41.95923351005464,0
216,132,7,-42.18746828908424,0
217,131,6,-43.38541146543357,0
218,130,6,-43.64900292567287,0
219,131,6,-44.28489572416756,0
220,132,6,-44.40067088565157,0
221,130,6,-43.22484093175863,0
222,130,6,-43.22471079919987,0
223,129,7,-43.3819394558417,0
224,127,7,-42.74208830382042,0
225,127,7,-43.048115058270724,0
226,125,8,-43.268137448473425,0
227,125,8,-43.27304743135116,0
228,126,9,-43.086619708739626,0
229,126,9,-43.39344637592148,0
230,125,9,-42.90135752313994,0
231,125,9,-43.17820049843035,0
232,126,9,-43.63660829035007,0
233,126,9,-44.278822841600466,0
234,125,9,-44.291122017988734,0
235,121,9,-43.783827358754806,0
236,120,9,-43.71447192583078,0
237,120,9,-43.41699762189592,0
238,119,9,-42.746695913625125,0
239,117,9,-42.15890564708687,0
240,120,9,-43.180580819848565,0
241,121,9,-43.27446427637353,0
242,121,9,-43.692984296304374,0
243,122,9,-45.51375146923664,0
244,122,9,-45.489239610763335,0
245,122,9,-45.43914975490488,0
246,123,9,-43.70516796247577,0
247,122,9,-43.51458585980272,0
248,120,9,-44.25542240070975,0
249,118,9,-41.009983460435095,0
250,123,9,-43.11566084896457,0
251,124,9,-43.374720759234066,0
252,124,9,-43.48153580397652,0
253,121,9,-41.44405796924245,0
254,121,9,-41.54339182407891,0
255,122,9,-42.25898237497294,0
256,124,9,-42.783551033931126,0
257,125,9,-42.43282969114589,0
258,125,9,-42.64992587762319,0
259,124,9,-42.68608110070942,0
260,124,9,-42.692033507578365,0
261,124,9,-43.44776139979002,0
262,125,9,-44.503244493001304,0
263,125,9,-44.46068564443919,0
264,125,9,-45.45920062044647,0
265,126,9,-45.34710398672464,0
266,125,9,-45.22358129951479,0
267,127,9,-45.08377183711925,0
268,127,9,-45.090527136003146,0
269,128,9,-45.61563827844193,0
270,128,9,-45.43792407118669,0
271,129,9,-45.70007408365407,0
272,127,9,-45.64376830676237,0
273,127,9,-45.57910194735875,0
274,126,9,-46.2922289021006,0
275,128,9,-46.93434441800562,0
276,126,9,-46.80254004156713,0
277,129,9,-46.98783308510462,0
278,129,9,-46.116390457090645,0
279,128,9,-45.964775976885704,0
280,130,8,-46.28529572102001,0
281,130,8,-45.34271485362986,0
282,130,8,-45.39812342179802,0
283,130,8,-45.562833792524486,0
284,128,8,-45.220895173051986,0
285,125,8,-45.01627212482873,0
286,126,7,-45.27450790251592,0
287,127,7,-45.597143621925625,0
288,126,8,-45.6183927620788,0
289,125,8,-45.27928312911002,0
290,125,8,-45.965633552415646,0
291,125,9,-45.864686498231094,0
292,126,9,-46.05094595552055,0
293,126,9,-46.03056075746576,0
294,126,9,-46.04111277325776,0
295,127,9,-46.044146632271676,0
296,127,9,-46.45937831368914,0
297,126,9,-46.57115428401027,0
298,128,9,-47.09703854268632,0
299,127,9,-47.402577564309524,0
300,129,9,-48.411966512034816,0
301,127,9,-47.94173569194965,0
302,127,9,-47.87700940745513,0
303,127,8,-48.11124472868768,0
304,126,8,-47.88877327160887,0
305,125,8,-48.25034367283538,0
306,124,8,-48.37370598396484,0
307,126,7,-48.82958232665828,0
308,126,6,-49.03578514637623,0
309,124,7,-48.69734128952847,0
310,121,7,-48.04691571154174,0
311,117,7,-47.70463855135666,0
312,117,7,-47.90129283133564,0
313,118,7,-48.72935510674939,0
314,118,7,-48.5525688545421,0
315,116,7,-47.700000924889785,0
316,114,6,-48.07030375153278,0
317,114,6,-47.32806643295244,0
318,113,6,-47.02629761074702,0
319,112,6,-46.369920220313716,0
320,112,6,-47.187269687033904,0
321,111,6,-46.91031585016586,0
322,112,6,-47.14749046946336,0
323,110,6,-46.29504024286021,0
324,110,6,-46.618253150650915,0
325,111,6,-46.720803296452104,0
326,111,5,-46.77150511078174,0
327,111,5,-47.172163894102404,0
328,109,4,-47.562988033407215,0
329,110,4,-47.31611368538428,0
330,110,4,-47.32211490118791,0
331,109,5,-46.45519488786126,0
332,109,5,-45.965460525331736,0
333,109,5,-45.821598086080854,0
334,110,5,-46.28947178128785,0
335,111,5,-47.02457720934851,0
336,111,5,-47.01689481031365,0
337,112,5,-46.93399526955781,0
338,108,5,-45.35600413691697,0
339,108,6,-45.229652476206404,0
340,104,6,-44.34710396356126,0
341,104,6,-44.51187024785825,0
342,104,6,-44.610112241752475,0
343,104,6,-43.40713135424813,0
344,105,6,-44.21241842299614,0
345,106,6,-44.61074286309454,0
346,105,6,-45.49205331549572,0
347,105,6,-45.512887617076494,0
348,104,6,-44.49674845499191,0
349,102,6,-44.56882570999493,0
350,98,6,-42.61345097157856,0
351,97,6,-42.40301909663137,0
352,97,6,-42.38513307876488,0
353,98,6,-42.69751450737568,0
354,100,6,-43.46505908660194,0
355,101,6,-43.69593596754321,0
356,99,6,-42.69113155988177,0
357,98,6,-43.56816026297076,0
358,100,6,-44.18504816770967,0
359,100,6,-44.27087535551889,0
360,100,6,-44.39211655792078,0
361,101,6,-44.91537235543501,0
362,101,6,-44.043076739140155,0
363,103,7,-44.2383497943976,0
364,104,7,-43.84950995433039,0
365,102,8,-43.7509994893133,0
366,104,9,-43.79678175622815,0
367,101,9,-43.77459097327285,0
368,100,9,-43.61178866107767,0
369,98,9,-42.38257002066284,0
370,98,9,-43.08731314326889,0
371,95,9,-42.273241492482654,0
372,98,9,-42.81274696888113,0
373,99,9,-42.9532537403524,0
374,102,9,-42.98892116975414,0
375,102,10,-41.74432777363193,0
376,104,10,-42.14696790986216,0
377,104,10,-42.11351546355414,0
378,109,11,-42.477006351252555,0
379,114,11,-43.26104328837455,0
380,113,11,-43.53862142163849,0
381,112,11,-43.671843150687444,0
382,112,11,-43.61147509348738,0
383,113,11,-44.006295043541186,0
384,111,11,-43.82635190493513,0
385,112,11,-43.98468587368309,0
386,111,11,-44.39393920273518,0
387,110,11,-43.977681025384435,0
388,112,10,-45.834996450821166,0
389,112,10,-46.02835413127397,0
390,111,10,-44.73525488333632,0
391,113,9,-45.317357526904935,0
392,111,9,-45.27038698918724,0
393,111,9,-45.47594523950553,0
394,111,9,-47.017012670159005,0
395,111,9,-47.082246020672464,0
396,111,10,-46.63919413647296,0
397,110,10,-45.905326755507375,0
398,108,10,-45.60338699383046,0
399,108,11,-45.067358876869946,0
400,109,11,-44.12269571883133,0
401,109,11,-44.34785770439616,0
402,109,11,-44.650548174948455,0
403,109,11,-45.30688386504087,0
404,107,11,-44.82175914394018,0
405,107,11,-44.68360847030886,0
406,107,11,-44.90296856369576,0
407,105,11,-44.80172870783909,0
408,105,12,-44.61157408380559,0
409,108,11,-44.915041899040254,0
410,110,11,-46.069034027782706,0
411,109,11,-46.118531189712684,0
412,109,11,-45.57622319025043,0
413,108,12,-45.03288576819459,0
414,106,13,-44.92169190035061,0
415,105,13,-44.41037942653331,0
416,104,13,-43.78662849282118,0
417,105,13,-43.303908952431755,0
418,105,13,-43.40853417559502,0
419,106,13,-43.94577968188342,0
420,107,13,-43.95348993774604,0
421,107,13,-44.14455295626687,0
422,108,14,-43.72602803089428,0
423,108,13,-44.30433006984662,0
424,108,13,-43.976853648775986,0
425,107,13,-43.54405659083467,0
426,107,13,-43.10168344403296,0
427,107,13,-43.297752451433716,0
428,107,13,-43.46573895989393,0
429,105,13,-43.504337705109826,0
430,105,13,-43.66796101630878,0
431,105,12,-43.97921580740333,0
432,105,12,-44.248845705347904,0
433,104,12,-44.38516299576282,0
434,105,13,-44.285814702791804,0
435,104,13,-43.519297241832966,0
436,104,13,-44.52477502616492,0
437,106,13,-45.07975587026015,0
438,109,13,-46.37018756705639,0
439,110,12,-47.47524276113334,0
440,108,12,-46.6660076953003,0
441,107,12,-46.70110492366168,0
442,106,12,-46.284125422284916,0
443,105,12,-46.23245476259753,0
444,108,12,-45.960714559809304,0
445,107,12,-45.802008985053156,0
446,107,13,-44.95420216781196,0
447,109,13,-45.07535846237477,0
448,109,13,-45.076093793582885,0
449,107,13,-44.839412917140805,0
450,107,14,-44.385096284147465,0
451,108,14,-44.40224595085224,0
452,109,14,-44.31198111628159,0
453,110,14,-44.194570772686205,0
454,111,14,-44.38531210032508,0
455,109,14,-43.90446101409777,0
456,110,14,-44.201003396364534,0
457,110,14,-43.558367315621936,0
458,109,14,-43.63349160761102,0
459,109,15,-43.31728137790402,0
460,110,16,-43.680246450724916,0
461,110,16,-42.80762180376872,0
462,110,16,-42.42096967700459,0
463,108,16,-41.966380804561986,0
464,110,16,-41.33602942644241,0
465,110,15,-40.914384946630136,0
466,108,14,-40.84536733380593,0
467,108,14,-40.678608244485034,0
468,108,14,-41.16163023729255,0
469,108,14,-41.75595005040836,0
470,109,14,-42.42609758243995,0
471,109,14,-42.6701801723169,0
472,108,14,-42.271050768713465,0
473,110,15,-42.5727801042205,0
474,105,15,-42.15213844329189,0
475,103,14,-42.5323857959293,0
476,100,14,-42.206960545945634,0
477,98,14,-42.6972908670938,0
478,95,13,-42.990337398488634,0
479,90,13,-42.995298040245395,0
480,90,13,-43.85852665111623,0
481,94,13,-44.63005874682877,0
482,94,13,-44.837248695912095,0
483,92,13,-44.372851415430404,0
484,91,13,-44.796981508808706,0
485,92,13,-45.09677881555198,0
486,92,13,-45.02150907047222,0
487,90,13,-45.23230425207017,0
488,88,14,-43.06442315300748,0
489,88,15,-42.670030701440794,0
490,89,15,-42.62051570146451,0
491,89,15,-42.547735996317854,0
492,89,16,-42.47206008193896,0
493,90,16,-43.28777437429152,0
494,90,16,-42.07859901079961,0
495,89,16,-41.93341826460036,0
496,91,16,-42.125070652360755,0
497,92,17,-41.24809297389957,0
498,92,17,-41.21142268752393,0
499,92,16,-41.34667421114395,0
500,90,16,-41.215925211686816,0
501,90,16,-40.90476387115665,0
502,90,16,-40.59068261281121,0
503,89,16,-39.85134850353148,0
504,89,16,-39.95889566167929,0
505,90,16,-40.403493040841006,0
506,91,16,-41.145788372032,0
507,93,16,-41.21090571575066,0
508,95,15,-42.03898972696503,0
509,92,16,-41.86721880036411,0
510,92,16,-40.87232570703538,0
511,92,16,-41.10647724201555,0
512,91,16,-40.926334784634186,0
513,91,15,-40.982922902072715,0
514,91,14,-41.04459615658944,0
515,90,14,-41.0050651911944,0
516,89,14,-41.691006265012135,0
517,89,14,-41.63421622767114,0
518,89,14,-41.82265566140449,0
519,89,14,-41.37243537848674,0
520,89,14,-41.441321766384355,0
521,90,14,-42.276118112218725,0
522,91,13,-43.512572529607766,0
523,91,13,-43.332571572654594,0
524,91,13,-43.62746451622116,0
525,93,13,-45.549686363774,0
526,95,13,-45.755128487406665,0
527,96,14,-45.871329785766655,0
528,96,14,-45.42711894034974,0
529,96,14,-45.12064722419934,0
530,98,15,-44.841861607727935,0
531,98,15,-44.662904462977274,0
532,99,15,-44.61493736505102,0
533,99,15,-44.61319869581652,0
534,100,14,-44.421000052015295,0
535,100,14,-44.62466499783731,0
536,102,14,-43.84865749541781,0
537,101,14,-43.33738815631113,0
538,98,14,-42.18931319125739,0
539,97,14,-41.36905119734117,0
540,97,14,-41.54254095162919,0
541,97,14,-41.944681700123574,0
542,98,14,-41.87514063648941,0
543,99,15,-41.5622031847712,0
544,96,16,-40.962488191866306,0
545,96,16,-40.9547269146749,0
546,96,15,-41.21898450384798,0
547,96,15,-41.38542302031329,0
548,98,15,-42.31134475958633,0
549,98,15,-42.624981396111124,0
550,98,14,-43.309988855062485,0
551,98,14,-44.264909791507364,0
552,100,14,-44.7099139003353,0
553,99,15,-45.0631583103336,0
554,96,15,-44.39578604879438,0
555,96,15,-44.35033324336171,0
556,96,16,-43.73145074600578,0
557,94,16,-43.13957877552355,0
558,94,17,-42.01991854847777,0
559,96,16,-42.6254689107275,0
560,96,15,-42.67489013778555,0
561,95,15,-42.33012123816954,0
562,94,15,-42.41338915209919,0
563,95,14,-42.82333668863219,0
564,92,14,-42.63624027918679,0
565,91,14,-42.54520235157627,0
566,95,14,-43.77144617129713,0
567,95,14,-43.80897663688916,0
568,95,14,-43.3995241366958,0
569,96,14,-43.08830207247647,0
570,95,14,-41.413004523625865,0
571,96,14,-41.32585531804553,0
572,96,14,-40.98415309319522,0
573,93,13,-40.51800758005895,0
574,93,13,-40.160753132093326,0
575,93,13,-39.98255694736327,0
576,92,13,-40.134995399550576,0
577,91,13,-39.55793901709856,0
578,91,13,-39.767884915116454,0
579,91,13,-39.06614377726211,0
580,90,13,-37.75674157729103,0
581,87,13,-36.76678720699383,0
582,86,13,-36.574511910618554,0
583,87,13,-36.50137808166399,0
584,87,13,-36.302476901060835,0
585,85,13,-36.208152824745554,0
586,85,13,-36.112023792624015,0
587,85,13,-35.84013089368381,0
588,88,12,-37.15553335881915,0
