Episode,Step,Avg_Success,Avg_Reward,Avg_Cost
0,28,0,-0.2702971627235411,0
1,132,0,-0.3272766011714924,0
2,188,0,-0.6533783554553986,0
3,193,0,-0.666556123524904,0
4,158,0,-0.3012899616050719,0
5,143,0,-0.33774050576686854,0
6,123,0,-0.2998142173426491,0
7,108,0,-0.26233744017481797,0
8,96,0,-0.2331888357109493,0
9,86,0,-0.31364027877330775,0
10,79,0,-0.2851275261575525,0
11,77,0,-0.2920608511904874,0
12,79,7,-0.21598729250706153,0
13,74,7,-0.18150530128904746,0
14,89,6,-0.47018305883169054,0
15,86,6,-0.41410393720045574,0
16,86,5,-0.4275015789628017,0
17,88,5,-0.3487858438763342,0
18,99,5,-0.259279899492388,0
19,109,5,-0.2906693635731922,0
20,118,4,-0.28031433099167546,0
21,116,4,-0.27167069364515084,0
22,116,4,-0.20682778266979163,0
23,111,8,-0.15654329172521694,0
24,110,8,-0.13092273834562165,0
25,118,7,-0.09435139973988756,0
26,114,7,-0.07522775686670093,0
27,113,7,-0.07804978193810871,0
28,111,6,-0.0379187957344371,0
29,108,6,-0.03510912482817841,0
30,113,6,-0.07336632419978285,0
