Library/Bee/artifacts/mvdfrm/UnityEditor.TestRunner.ref.dll_2594DFF003AE8269.mvfrm
Library/Bee/artifacts/mvdfrm/UnityEditor.UI.ref.dll_452FB8EBD860BCAB.mvfrm
Library/Bee/artifacts/mvdfrm/UnityEngine.TestRunner.ref.dll_F1B32A9E2F71E054.mvfrm
Library/Bee/artifacts/mvdfrm/UnityEngine.UI.ref.dll_01958F46DE82E516.mvfrm
Library/Bee/artifacts/mvdfrm/Unity.Burst.Cecil.Mdb.dll_33689E82CE1D2A87.mvfrm
Library/Bee/artifacts/mvdfrm/Unity.Burst.Cecil.Pdb.dll_4ABB16F24CD22C0A.mvfrm
Library/Bee/artifacts/mvdfrm/Unity.Burst.Cecil.Rocks.dll_D538465418B4F16A.mvfrm
Library/Bee/artifacts/mvdfrm/Unity.Burst.Cecil.dll_10041B4E64BC04CA.mvfrm
Library/Bee/artifacts/mvdfrm/Unity.Burst.Unsafe.dll_ABA2C30F950398A9.mvfrm
Library/Bee/artifacts/mvdfrm/Unity.Plastic.Antlr3.Runtime.dll_AFDA470AA025C077.mvfrm
Library/Bee/artifacts/mvdfrm/Unity.Plastic.Newtonsoft.Json.dll_D6C7B4E26E24ADCE.mvfrm
Library/Bee/artifacts/mvdfrm/UnityEditor.Graphs.dll_6E9B81731C987E58.mvfrm
Library/Bee/artifacts/mvdfrm/UnityEditor.CoreModule.dll_35673E903AEF9A26.mvfrm
Library/Bee/artifacts/mvdfrm/UnityEditor.DeviceSimulatorModule.dll_29F966619607967B.mvfrm
Library/Bee/artifacts/mvdfrm/UnityEditor.DiagnosticsModule.dll_82E2067074613209.mvfrm
Library/Bee/artifacts/mvdfrm/UnityEditor.GraphViewModule.dll_527A400715E6EEC0.mvfrm
Library/Bee/artifacts/mvdfrm/UnityEditor.PackageManagerUIModule.dll_0B6D3DA2299EF402.mvfrm
Library/Bee/artifacts/mvdfrm/UnityEditor.QuickSearchModule.dll_0DF1877DCD382E62.mvfrm
Library/Bee/artifacts/mvdfrm/UnityEditor.SceneTemplateModule.dll_21F014E4A79BED23.mvfrm
Library/Bee/artifacts/mvdfrm/UnityEditor.TextCoreFontEngineModule.dll_550B68B953E608E4.mvfrm
Library/Bee/artifacts/mvdfrm/UnityEditor.TextCoreTextEngineModule.dll_9CF39F2AE369C202.mvfrm
Library/Bee/artifacts/mvdfrm/UnityEditor.UIBuilderModule.dll_A702ED23889F67F4.mvfrm
Library/Bee/artifacts/mvdfrm/UnityEditor.UIElementsModule.dll_F5D8AEAC858BD3A2.mvfrm
Library/Bee/artifacts/mvdfrm/UnityEditor.UIElementsSamplesModule.dll_C4429904A0401DEB.mvfrm
Library/Bee/artifacts/mvdfrm/UnityEditor.UIServiceModule.dll_DFF4FE8671D6B80E.mvfrm
Library/Bee/artifacts/mvdfrm/UnityEditor.UnityConnectModule.dll_C8DA54C3EC4B5BDC.mvfrm
Library/Bee/artifacts/mvdfrm/UnityEditor.dll_448A5A391C5DB68F.mvfrm
Library/Bee/artifacts/mvdfrm/UnityEngine.AIModule.dll_B61C9EA26DA69FBA.mvfrm
Library/Bee/artifacts/mvdfrm/UnityEngine.ARModule.dll_6F8F63A5CAC3FE83.mvfrm
Library/Bee/artifacts/mvdfrm/UnityEngine.AccessibilityModule.dll_5495807BA81214C0.mvfrm
Library/Bee/artifacts/mvdfrm/UnityEngine.AndroidJNIModule.dll_7421977FCEAB4278.mvfrm
Library/Bee/artifacts/mvdfrm/UnityEngine.AnimationModule.dll_20FFBC2FF043C366.mvfrm
Library/Bee/artifacts/mvdfrm/UnityEngine.AssetBundleModule.dll_51DABA6F2F9EE354.mvfrm
Library/Bee/artifacts/mvdfrm/UnityEngine.AudioModule.dll_05E8818B719CDAD8.mvfrm
Library/Bee/artifacts/mvdfrm/UnityEngine.ClothModule.dll_6CD0DE864BB9B9BC.mvfrm
Library/Bee/artifacts/mvdfrm/UnityEngine.ClusterInputModule.dll_4876C9D99DD32EA2.mvfrm
Library/Bee/artifacts/mvdfrm/UnityEngine.ClusterRendererModule.dll_2FA628D305C2A3FF.mvfrm
Library/Bee/artifacts/mvdfrm/UnityEngine.CoreModule.dll_588811E2E2F50551.mvfrm
Library/Bee/artifacts/mvdfrm/UnityEngine.CrashReportingModule.dll_1273939FEDBD9589.mvfrm
Library/Bee/artifacts/mvdfrm/UnityEngine.DSPGraphModule.dll_0A72B337ED0C70CF.mvfrm
Library/Bee/artifacts/mvdfrm/UnityEngine.DirectorModule.dll_052151CE7AAB9FAE.mvfrm
Library/Bee/artifacts/mvdfrm/UnityEngine.GIModule.dll_4E58E7B0095587D4.mvfrm
Library/Bee/artifacts/mvdfrm/UnityEngine.GameCenterModule.dll_9E6EE19A94EC3369.mvfrm
Library/Bee/artifacts/mvdfrm/UnityEngine.GridModule.dll_35F92DD0FB499B48.mvfrm
Library/Bee/artifacts/mvdfrm/UnityEngine.HotReloadModule.dll_A2487A35CB76DEE8.mvfrm
Library/Bee/artifacts/mvdfrm/UnityEngine.IMGUIModule.dll_3E4820F237CE6EB9.mvfrm
Library/Bee/artifacts/mvdfrm/UnityEngine.ImageConversionModule.dll_9B98268387E75BF3.mvfrm
Library/Bee/artifacts/mvdfrm/UnityEngine.InputLegacyModule.dll_E31FD58DC7909945.mvfrm
Library/Bee/artifacts/mvdfrm/UnityEngine.InputModule.dll_6C5E493BE7D4FF7C.mvfrm
Library/Bee/artifacts/mvdfrm/UnityEngine.JSONSerializeModule.dll_B4AD09B7A74D754A.mvfrm
Library/Bee/artifacts/mvdfrm/UnityEngine.LocalizationModule.dll_86C3942C354F219B.mvfrm
Library/Bee/artifacts/mvdfrm/UnityEngine.NVIDIAModule.dll_AFA52E8534367DDD.mvfrm
Library/Bee/artifacts/mvdfrm/UnityEngine.ParticleSystemModule.dll_6585DCEC5BCF2117.mvfrm
Library/Bee/artifacts/mvdfrm/UnityEngine.PerformanceReportingModule.dll_907CA67A7A542B10.mvfrm
Library/Bee/artifacts/mvdfrm/UnityEngine.Physics2DModule.dll_6DA5AC209140BAFB.mvfrm
Library/Bee/artifacts/mvdfrm/UnityEngine.PhysicsModule.dll_AAB2208CBB22D0A9.mvfrm
Library/Bee/artifacts/mvdfrm/UnityEngine.ProfilerModule.dll_37678B05140526BB.mvfrm
Library/Bee/artifacts/mvdfrm/UnityEngine.RuntimeInitializeOnLoadManagerInitializerModule.dll_DEFD3BB0EFF8A1C4.mvfrm
Library/Bee/artifacts/mvdfrm/UnityEngine.ScreenCaptureModule.dll_CE94B73CBBB9A1AC.mvfrm
Library/Bee/artifacts/mvdfrm/UnityEngine.SharedInternalsModule.dll_1FA96558FF155743.mvfrm
Library/Bee/artifacts/mvdfrm/UnityEngine.SpriteMaskModule.dll_879B542AB65BC8E3.mvfrm
Library/Bee/artifacts/mvdfrm/UnityEngine.SpriteShapeModule.dll_6B3BE7C9E5411B5E.mvfrm
Library/Bee/artifacts/mvdfrm/UnityEngine.StreamingModule.dll_D594A9803FCB7AA4.mvfrm
Library/Bee/artifacts/mvdfrm/UnityEngine.SubstanceModule.dll_B23FBDC98B1E78B2.mvfrm
Library/Bee/artifacts/mvdfrm/UnityEngine.SubsystemsModule.dll_F248BA8C84A3B0F6.mvfrm
Library/Bee/artifacts/mvdfrm/UnityEngine.TLSModule.dll_B6FE073B351F4F3D.mvfrm
Library/Bee/artifacts/mvdfrm/UnityEngine.TerrainModule.dll_C4F89BFB90E11997.mvfrm
Library/Bee/artifacts/mvdfrm/UnityEngine.TerrainPhysicsModule.dll_660085BF75121BA4.mvfrm
Library/Bee/artifacts/mvdfrm/UnityEngine.TextCoreFontEngineModule.dll_D36AE40C66E3C7AF.mvfrm
Library/Bee/artifacts/mvdfrm/UnityEngine.TextCoreTextEngineModule.dll_1B531A7DF66780CD.mvfrm
Library/Bee/artifacts/mvdfrm/UnityEngine.TextRenderingModule.dll_F7D4294772F121A1.mvfrm
Library/Bee/artifacts/mvdfrm/UnityEngine.TilemapModule.dll_63F5037CA89DFAA0.mvfrm
Library/Bee/artifacts/mvdfrm/UnityEngine.UIElementsModule.dll_F6871BF487CFECED.mvfrm
Library/Bee/artifacts/mvdfrm/UnityEngine.UIElementsNativeModule.dll_55E6F2379B176424.mvfrm
Library/Bee/artifacts/mvdfrm/UnityEngine.UIModule.dll_B1903CCFC9EDA566.mvfrm
Library/Bee/artifacts/mvdfrm/UnityEngine.UNETModule.dll_EB2E59CC3003FACA.mvfrm
Library/Bee/artifacts/mvdfrm/UnityEngine.UmbraModule.dll_80BD2DA3FEC3864B.mvfrm
Library/Bee/artifacts/mvdfrm/UnityEngine.UnityAnalyticsCommonModule.dll_2BBB63BE943CC96E.mvfrm
Library/Bee/artifacts/mvdfrm/UnityEngine.UnityAnalyticsModule.dll_85254DB607F67313.mvfrm
Library/Bee/artifacts/mvdfrm/UnityEngine.UnityConnectModule.dll_B639D8D2E6D35C87.mvfrm
Library/Bee/artifacts/mvdfrm/UnityEngine.UnityCurlModule.dll_541C5D616057B553.mvfrm
Library/Bee/artifacts/mvdfrm/UnityEngine.UnityTestProtocolModule.dll_80054EF6FA3B7341.mvfrm
Library/Bee/artifacts/mvdfrm/UnityEngine.UnityWebRequestAssetBundleModule.dll_9CEF3211AC122C24.mvfrm
Library/Bee/artifacts/mvdfrm/UnityEngine.UnityWebRequestAudioModule.dll_0878FA5900BEF5A8.mvfrm
Library/Bee/artifacts/mvdfrm/UnityEngine.UnityWebRequestModule.dll_AD372E2D92DBF672.mvfrm
Library/Bee/artifacts/mvdfrm/UnityEngine.UnityWebRequestTextureModule.dll_0B7BBC3A55BA507D.mvfrm
Library/Bee/artifacts/mvdfrm/UnityEngine.UnityWebRequestWWWModule.dll_E6155FD9E6273D39.mvfrm
Library/Bee/artifacts/mvdfrm/UnityEngine.VFXModule.dll_37DC9FAA0B8CB8AA.mvfrm
Library/Bee/artifacts/mvdfrm/UnityEngine.VRModule.dll_046263556BA82ADE.mvfrm
Library/Bee/artifacts/mvdfrm/UnityEngine.VehiclesModule.dll_7CE44B4DF4D56F49.mvfrm
Library/Bee/artifacts/mvdfrm/UnityEngine.VideoModule.dll_2AF205F6342EF67D.mvfrm
Library/Bee/artifacts/mvdfrm/UnityEngine.VirtualTexturingModule.dll_7A73A6A673C5E4AF.mvfrm
Library/Bee/artifacts/mvdfrm/UnityEngine.WindModule.dll_CED6ED0B742B83BA.mvfrm
Library/Bee/artifacts/mvdfrm/UnityEngine.XRModule.dll_37212659F4E2783C.mvfrm
Library/Bee/artifacts/mvdfrm/UnityEngine.dll_772EA1117AD14374.mvfrm
Library/Bee/artifacts/mvdfrm/UnityEditor.LinuxStandalone.Extensions.dll_F1811DB5DC46328A.mvfrm