{
  "ExternalFunctions": [
    {
      "Name": "Unity.Jobs.LowLevel.Unsafe.JobsUtility::GetWorkStealingRange",
      "FullName": "Unity.Jobs.LowLevel.Unsafe.JobsUtility.GetWorkStealingRange(ref Unity.Jobs.LowLevel.Unsafe.JobRanges ranges, int jobIndex, ref int beginIndex, ref int endIndex) -> bool_5098b422cfe1887c72517c161185a84b"
    },
    {
      "Name": "Unity.Jobs.LowLevel.Unsafe.JobsUtility::PatchBufferMinMaxRanges",
      "FullName": "Unity.Jobs.LowLevel.Unsafe.JobsUtility.PatchBufferMinMaxRanges(System.IntPtr bufferRangePatchData, void* jobdata, int startIndex, int rangeSize) -> void_5098b422cfe1887c72517c161185a84b"
    }
  ]
}