Episode,Step,Avg_Success,Avg_Reward,Avg_Cost
0,28,0,-27.000707059097287,0
1,132,0,-50.601164044714295,0
2,271,33,-29.52901040393534,0
3,219,25,-22.41335126608627,0
4,216,20,-18.478785981016294,0
5,191,16,-15.726479378660633,0
6,164,28,-12.05126803885197,0
7,153,25,-10.51943319265255,0
8,149,22,-9.587673115539626,0
9,176,20,-10.26042548031337,0
10,171,18,-12.697634746928731,0
11,166,16,-11.59007994740812,0
12,162,15,-11.06792886402431,0
13,170,14,-10.707737401921479,0
14,160,13,-10.047465683403082,0
15,156,12,-9.470712754473151,0
16,157,11,-8.972657941565853,0
