Episode,Step,Avg_Success,Avg_Reward,Avg_Cost
0,28,0,-10.9335602809906,0
1,132,0,-10.187091084098814,0
2,252,0,-12.146822282898412,0
3,204,0,-13.197638017743815,0
4,168,0,-13.418322308926573,0
5,145,0,-13.865532634858283,0
6,126,0,-13.437588729177197,0
7,111,0,-13.151598275275521,0
8,116,0,-13.480116381739236,0
9,130,0,-13.421487566086046,0
10,138,0,-13.59491524532599,0
11,130,0,-13.326550613904985,0
12,122,0,-13.049400957614635,0
13,130,0,-12.725598410229166,0
14,131,0,-12.675991389226112,0
15,125,0,-12.53110719377323,0
16,123,0,-12.44763422391484,0
17,121,0,-12.352931181843406,0
18,117,0,-12.219693817921055,0
19,115,0,-12.10966301597058,0
20,122,0,-12.110846038409068,0
21,116,4,-11.105807582117746,0
22,133,4,-11.533896104294831,0
23,140,4,-11.837450806211919,0
24,137,8,-11.010846478010643,0
25,132,7,-10.981976139345985,0
26,132,7,-10.981342515443421,0
27,128,7,-10.948142540577043,0
28,133,6,-11.174522532811647,0
29,138,6,-11.20263305999119,0
30,134,6,-11.195584604539782,0
31,130,6,-11.17939785850606,0
32,127,6,-11.247784672604539,0
33,124,5,-11.267890141507099,0
34,122,5,-11.368887874530376,0
35,119,5,-11.3885426785065,0
36,116,5,-11.423644814455825,0
37,122,5,-11.66176054799054,0
38,128,5,-11.766965061468946,0
39,125,5,-11.717560912702073,0
40,123,4,-11.670528663516617,0
41,127,4,-11.641259493939073,0
42,128,4,-11.775371346195344,0
43,125,4,-11.741868178927888,0
44,124,4,-11.704680335791895,0
45,122,4,-11.672002522730818,0
46,122,4,-11.662824231757499,0
47,122,4,-11.73693334317852,0
48,121,4,-11.717986463536038,0
49,120,4,-11.715242774855842,0
50,117,5,-11.289453700839061,0
51,115,5,-11.295100374495973,0
52,113,5,-11.305751061073781,0
53,112,5,-11.324308672227453,0
54,115,5,-11.448659754310727,0
55,116,5,-11.624482055063963,0
56,123,5,-11.61412519232703,0
57,125,5,-11.56067114836367,0
58,123,5,-11.54127611021045,0
59,126,5,-11.503354596809737,0
60,127,4,-11.58346464800443,0
61,127,4,-11.608074482287508,0
62,128,4,-11.606080424195616,0
63,134,4,-11.766466852069636,0
64,133,4,-11.752433605761885,0
65,131,4,-11.72980290591174,0
66,129,4,-11.746462343282477,0
67,128,4,-11.800840550686804,0
68,126,4,-11.855133669762067,0
69,131,4,-12.018857422004672,0
70,138,4,-11.903930385927659,0
71,136,4,-11.877261373193637,0
72,136,4,-11.866154067059975,0
73,140,4,-11.845244947727219,0
74,146,4,-11.853955224442712,0
75,146,3,-11.86349891998069,0
76,144,3,-11.856030964921272,0
77,142,3,-11.855986839979652,0
78,142,3,-11.93839540744046,0
79,141,3,-11.933940087529786,0
80,141,3,-11.94178920496429,0
81,144,3,-11.954150361790955,0
82,144,3,-11.946491140121502,0
83,145,3,-11.955799168912634,0
84,144,3,-11.956794867507211,0
85,143,3,-12.003662555841295,0
86,142,3,-11.996341079059475,0
87,140,3,-12.042172785243048,0
88,140,3,-12.056013007808732,0
89,145,3,-12.13011279902663,0
90,146,3,-12.129619293652453,0
91,148,3,-12.114803735831957,0
92,147,4,-11.875937746609342,0
93,146,4,-11.862075542220088,0
94,146,5,-11.622712888982607,0
95,145,5,-11.610669199367296,0
96,146,5,-11.615570932600603,0
97,145,5,-11.615990962275857,0
98,145,5,-11.633206316747746,0
99,146,5,-11.644098012736256,0
100,147,5,-11.62891917878049,0
101,145,5,-11.642451959120447,0
102,143,5,-11.662317794909532,0
103,143,5,-11.599399194418604,0
104,143,5,-11.561005629859146,0
105,149,5,-11.48073878274959,0
106,149,5,-11.471207786184486,0
107,149,5,-11.46631286507922,0
108,150,5,-11.411533807437714,0
109,147,5,-11.384534574013765,0
110,146,5,-11.337199797868305,0
111,146,5,-11.397661211125905,0
112,148,5,-11.450387729090147,0
113,146,5,-11.47463613896983,0
114,147,5,-11.469061968832664,0
115,147,5,-11.464066978115252,0
116,148,6,-11.315106999893121,0
117,147,7,-11.112050601296357,0
118,147,7,-11.120938035728628,0
119,146,7,-11.142301140804705,0
120,144,7,-11.137484837015087,0
121,145,7,-11.169433467049771,0
122,141,7,-11.063262766916212,0
123,140,7,-10.995402597738439,0
124,139,6,-11.18384000180858,0
125,141,6,-11.228482919137175,0
126,141,6,-11.225313279532367,0
127,142,6,-11.229258390595849,0
128,139,6,-11.162710576142606,0
129,142,6,-11.053161498195227,0
130,142,6,-11.04232812747925,0
131,143,6,-11.040349513017352,0
132,143,6,-11.029928350583607,0
133,147,6,-11.065048992601689,0
134,148,6,-11.064524168343478,0
135,148,6,-11.100061183363673,0
136,151,6,-11.217645523307736,0
137,153,6,-11.049938473513304,0
138,151,6,-11.002798150100887,0
139,157,6,-10.922019033794582,0
140,158,6,-10.939922087108787,0
141,157,6,-10.939768557365595,0
142,159,6,-10.842243922042547,0
143,160,7,-10.629582778670965,0
144,161,7,-10.661023739741266,0
145,165,7,-10.676813565598424,0
146,169,7,-10.580012119971213,0
147,169,7,-10.544381116035638,0
148,171,7,-10.556186927354991,0
149,171,7,-10.53866665567976,0
150,173,6,-10.749147655633983,0
151,176,6,-10.772812859260496,0
152,178,6,-10.784540549528058,0
153,178,6,-10.761756966244038,0
154,176,6,-10.678493445329485,0
155,177,6,-10.591787165492116,0
156,176,6,-10.602677262652694,0
157,174,6,-10.618849980369864,0
158,176,6,-10.63854669838172,0
159,174,6,-10.647323568106946,0
160,177,6,-10.598708050505577,0
161,178,6,-10.573122696261345,0
162,178,6,-10.580192314885794,0
163,177,6,-10.482399544581115,0
164,182,6,-10.39433632157439,0
165,183,6,-10.416056757007897,0
166,185,6,-10.394052865906538,0
167,188,6,-10.352531872122258,0
168,188,6,-10.311598975834372,0
169,185,6,-10.18692329188812,0
170,180,6,-10.318572287395837,0
171,183,7,-10.103101816469072,0
172,182,8,-9.879721957997202,0
173,178,8,-9.879061374519946,0
174,174,8,-9.860046689160944,0
175,173,8,-9.834539325791479,0
176,174,8,-9.817298450923085,0
177,175,8,-9.79573220573342,0
178,175,8,-9.711366594640017,0
179,174,8,-9.697494259574176,0
180,173,8,-9.6752507122221,0
181,170,8,-9.643713603920936,0
182,169,8,-9.63364399473095,0
183,167,8,-9.603868677066323,0
184,166,8,-9.581771615383147,0
185,167,8,-9.522558930433512,0
186,168,8,-9.541677352545022,0
187,169,8,-9.502142252492071,0
188,169,8,-9.468192843577743,0
189,166,9,-9.219743765160443,0
190,165,10,-8.999949963239551,0
191,163,10,-8.999530545551181,0
192,164,10,-8.986899949055552,0
193,165,10,-8.975155639145015,0
194,164,9,-9.18698807199633,0
195,164,9,-9.185230028894065,0
196,165,9,-9.178942978477954,0
197,164,9,-9.195883481861948,0
198,163,9,-9.17621816072595,0
199,160,9,-9.157396179900168,0
200,160,9,-9.201791287608026,0
201,161,9,-9.31580148634839,0
202,159,9,-9.243700290391445,0
203,159,9,-9.245185979108333,0
204,159,9,-9.239478644970415,0
205,154,9,-9.255366922286749,0
206,154,9,-9.25946099263549,0
207,154,10,-9.041386478836534,0
208,154,11,-8.82683036032891,0
209,154,11,-8.863601405341386,0
210,154,11,-8.906821943225623,0
211,159,11,-8.85766568235183,0
212,159,11,-8.817868184736131,0
213,159,11,-8.812198896656394,0
214,158,11,-8.811649560207725,0
215,158,11,-8.813966252425194,0
216,156,10,-8.991991183002233,0
217,156,9,-9.233779503530146,0
218,156,9,-9.2428502167691,0
219,159,9,-9.31559943285972,0
220,160,9,-9.330534208777488,0
221,161,8,-9.517036981679738,0
222,160,8,-9.510361983777821,0
223,160,8,-9.504651024397672,0
224,160,8,-9.518316904958548,0
225,158,8,-9.497131005448638,0
226,157,8,-9.50047528890735,0
227,157,9,-9.340830620659649,0
228,157,9,-9.33010238177091,0
229,153,9,-9.444296681022228,0
230,156,9,-9.540314208028377,0
231,156,9,-9.53811716345173,0
232,155,9,-9.512457726180493,0
233,153,9,-9.481417940013111,0
234,153,9,-9.431457032305183,0
235,154,9,-9.361681932108047,0
236,152,9,-9.229877330468597,0
237,147,9,-9.307613821976126,0
238,147,9,-9.290912040541112,0
239,142,9,-9.376314922932089,0
240,141,9,-9.382324447877467,0
241,141,9,-9.416608291642486,0
242,137,9,-9.48366144705516,0
243,138,8,-9.78754012051612,0
244,138,8,-9.759828341813146,0
245,134,9,-9.54202350660616,0
246,129,9,-9.625172160455762,0
247,129,9,-9.625782988222179,0
248,126,9,-9.611451630842982,0
249,126,9,-9.629293556769191,0
250,126,9,-9.635594634630976,0
251,124,9,-9.587161053797779,0
252,123,9,-9.559410915332613,0
253,123,9,-9.563918133410274,0
254,122,9,-9.576189747234164,0
255,119,9,-9.55324936820346,0
256,116,9,-9.642022367710885,0
257,118,10,-9.429471444019613,0
258,117,11,-9.201734469894227,0
259,118,11,-9.26789769078785,0
260,116,11,-9.272906737105904,0
261,115,11,-9.29092174694401,0
262,113,11,-9.266216784610569,0
263,114,11,-9.271629425477563,0
264,109,12,-9.150364427594722,0
265,108,12,-9.12798258949822,0
266,110,12,-9.147130412112414,0
267,108,12,-9.128417846858918,0
268,109,12,-9.12297630221766,0
269,109,12,-9.11566099424046,0
270,109,12,-9.043189326559721,0
271,106,11,-9.2579495901373,0
272,105,10,-9.470665168354808,0
273,105,10,-9.496958675552904,0
274,103,10,-9.5016228998906,0
275,102,10,-9.501337502406777,0
276,101,10,-9.505693713471114,0
277,101,10,-9.51022904139012,0
278,100,10,-9.523142249725995,0
279,100,10,-9.522086684022604,0
280,99,10,-9.520128020301518,0
281,99,10,-9.523246230830846,0
282,98,10,-9.52013149038857,0
283,101,10,-9.618982970443662,0
284,101,11,-9.43385805338305,0
285,101,11,-9.445934314443765,0
286,100,11,-9.410945295186696,0
287,98,12,-9.190188083007511,0
288,100,12,-9.187126177671132,0
289,99,11,-9.370974408421219,0
290,98,10,-9.67004473272258,0
291,97,10,-9.680513289511381,0
292,96,9,-9.924379120348153,0
293,95,9,-9.982015046342312,0
294,95,9,-9.993191749474343,0
295,95,9,-10.013562572653111,0
296,94,9,-10.027847947423872,0
297,98,9,-10.006913953364668,0
298,98,9,-9.991769664526757,0
299,99,9,-9.976480081598696,0
300,101,9,-10.027366398644265,0
301,101,9,-10.004713054560241,0
302,99,9,-9.995753260992585,0
303,99,9,-9.993808343866885,0
304,99,9,-10.02246968727821,0
305,100,9,-10.08818717598897,0
306,100,9,-10.074451821500599,0
307,100,8,-10.27381624701339,0
308,100,7,-10.485197484814462,0
309,101,7,-10.45818555531865,0
310,99,8,-10.20739886015254,0
311,96,9,-10.019389914901552,0
312,95,9,-10.005772593865213,0
313,95,9,-10.001550126330194,0
314,94,9,-9.995941884869632,0
315,94,9,-10.00179416370648,0
316,94,9,-9.968122442526994,0
317,94,9,-9.92521767504817,0
318,94,9,-9.909859551983413,0
319,91,9,-9.820441876705525,0
320,90,9,-9.789792576985237,0
321,88,9,-9.7713411740483,0
322,88,9,-9.786861172294495,0
323,86,9,-9.777300543641566,0
324,87,9,-9.840798318307398,0
325,86,9,-9.812237960868119,0
326,88,9,-9.831915142911908,0
327,88,9,-9.78817485648775,0
328,89,9,-9.85537621029806,0
329,88,9,-9.829651673642633,0
330,85,9,-9.73233568096876,0
331,87,9,-9.728130721290109,0
332,87,10,-9.536340155929564,0
333,87,10,-9.528052434595581,0
334,87,10,-9.53182755697107,0
335,85,10,-9.590047373478887,0
336,84,10,-9.577394418087957,0
337,83,10,-9.562644549487112,0
338,83,10,-9.610702195828434,0
339,84,10,-9.71562975260806,0
340,83,10,-9.697092325061437,0
341,85,10,-9.661752411762116,0
342,85,10,-9.625500142630457,0
343,84,11,-9.331270292676805,0
344,82,11,-9.330483859394906,0
345,84,10,-9.540930219483254,0
346,84,10,-9.55695447913086,0
347,86,10,-9.673661254948255,0
348,86,10,-9.678810185104963,0
349,86,10,-9.677800788631078,0
350,86,10,-9.667814661784766,0
351,85,10,-9.67722822981989,0
352,86,10,-9.721467294133063,0
353,86,10,-9.715340280396338,0
354,89,10,-9.72021615007412,0
355,90,10,-9.730080820956346,0
356,88,10,-9.622094270102856,0
357,89,9,-9.845729173263429,0
358,88,9,-9.84304871453845,0
359,89,9,-9.76805780541527,0
360,89,9,-9.759615723359223,0
361,90,9,-9.789638906775828,0
362,92,9,-9.81024492789638,0
363,87,9,-9.78387083193767,0
364,88,8,-9.993457505635142,0
365,88,8,-9.98536947460353,0
366,85,8,-9.962355726302025,0
367,85,8,-9.981982254218217,0
368,84,8,-9.99222141498625,0
369,84,8,-10.044773594514485,0
370,84,8,-10.04914357619631,0
371,85,8,-10.030049547917361,0
372,86,8,-10.02764718150806,0
373,87,8,-9.986130090937849,0
374,87,8,-9.977044503095744,0
375,88,8,-9.97483824394619,0
376,89,8,-9.971688460576175,0
377,89,9,-9.7707261772629,0
378,89,9,-9.757950802402137,0
379,93,9,-9.768573848241921,0
380,93,9,-9.781564871539471,0
381,94,9,-9.776067461791394,0
382,96,9,-9.756086641652463,0
383,95,9,-9.667678730880853,0
384,94,8,-9.857959956458922,0
385,93,8,-9.847220646660325,0
386,92,8,-9.865329949594019,0
387,93,7,-10.098749826126216,0
388,92,7,-10.184618796556173,0
389,93,7,-10.16822569947618,0
390,92,7,-10.06474046437436,0
391,93,7,-10.04482496565288,0
392,95,7,-10.030125337528167,0
393,96,7,-9.983518863673625,0
394,96,7,-9.967900249430715,0
395,96,7,-9.945097006170808,0
396,97,7,-10.03272186899191,0
397,93,7,-10.019494612012918,0
398,93,7,-10.020100967016278,0
399,92,7,-10.029449168161447,0
400,90,8,-9.73458335577899,0
401,92,8,-9.682201797693669,0
402,93,8,-9.67928653248924,0
403,93,8,-9.675868202491223,0
404,93,8,-9.650920560078202,0
405,93,8,-9.62515226941508,0
406,94,8,-9.643965718502223,0
407,93,8,-9.657404070543468,0
408,93,8,-9.656501858982264,0
409,92,8,-9.641533580265223,0
410,92,7,-9.842038541567026,0
411,92,6,-10.07533431944376,0
412,91,6,-10.096433474795518,0
413,91,6,-10.104149098977148,0
414,92,7,-9.95536937627822,0
415,95,7,-10.03825706009191,0
416,97,7,-10.19861997285157,0
417,97,7,-10.21840021331018,0
418,98,7,-10.22293707594126,0
419,99,7,-10.229174996051485,0
420,100,7,-10.23951169506019,0
421,101,7,-10.254220330661234,0
422,102,7,-10.24418909878963,0
423,102,7,-10.245351957334337,0
424,102,7,-10.180911322924432,0
425,105,7,-10.192578046320735,0
426,105,7,-10.211801236358939,0
427,106,6,-10.488005070448693,0
428,104,6,-10.421371495718775,0
429,105,6,-10.425875923060238,0
430,107,6,-10.443165245645341,0
431,106,6,-10.450880820957241,0
432,108,5,-10.654836910902558,0
433,108,5,-10.650471127711352,0
434,109,5,-10.665433072337207,0
435,110,5,-10.606294106172143,0
436,111,5,-10.623571580098687,0
437,111,5,-10.619698310422477,0
438,111,5,-10.58848136315876,0
439,110,5,-10.560474763914167,0
440,110,5,-10.606117393183288,0
441,107,5,-10.628906134973583,0
442,107,5,-10.672920869619425,0
443,107,4,-10.90459392240816,0
444,110,4,-10.925468295932825,0
445,109,4,-10.944559401738703,0
446,110,4,-10.945412450607359,0
447,108,4,-10.822334473570404,0
448,108,4,-10.847395555374085,0
449,108,4,-10.901977704493222,0
450,107,4,-10.896411019818004,0
451,108,4,-10.925124572004728,0
452,107,4,-10.890579374944148,0
453,107,4,-10.890475902940212,0
454,105,4,-10.883548780173953,0
455,104,4,-10.895169853251396,0
456,103,4,-10.912562967960296,0
457,104,4,-10.978978457313717,0
458,104,3,-11.204035855059324,0
459,103,3,-11.222532995886501,0
460,102,3,-11.226209451519665,0
461,101,4,-10.970662223266778,0
462,99,4,-10.948357274842914,0
463,100,4,-10.955808357179341,0
464,99,4,-10.943481906089481,0
465,100,4,-10.951456498940168,0
466,100,4,-11.04925838869053,0
467,101,4,-11.057395509159862,0
468,102,4,-11.040294018618878,0
469,101,4,-10.992708861496267,0
470,101,5,-10.786610136852083,0
471,100,5,-10.805866130424317,0
472,99,5,-10.812628032462891,0
473,99,5,-10.820665692432225,0
474,99,5,-10.820923819656194,0
475,100,5,-10.848013154390157,0
476,99,5,-10.853401603806315,0
477,100,4,-11.079756335598766,0
478,100,4,-11.073626854094323,0
479,97,4,-11.05913197473174,0
480,97,4,-11.039541452900943,0
481,96,4,-11.043225612204608,0
482,95,4,-11.062378050824222,0
483,94,4,-11.055582497390805,0
484,95,4,-11.053171515604076,0
485,95,4,-11.05065539207023,0
486,96,4,-11.03838590874332,0
487,96,4,-11.005360327726185,0
488,94,4,-10.92579852285695,0
489,93,4,-10.95894709149146,0
490,93,4,-10.978978614748954,0
491,93,4,-10.984786129420277,0
492,90,4,-10.970679392558095,0
493,89,4,-10.963210911673546,0
494,91,4,-10.963599397670267,0
495,92,4,-10.985007098715302,0
496,90,4,-10.864000922943589,0
497,90,4,-10.861743148373126,0
498,90,4,-10.865715157326221,0
499,90,5,-10.658190739646912,0
500,90,4,-10.87849689150524,0
501,88,4,-10.846437284025189,0
502,91,4,-10.842454797068592,0
503,91,4,-10.848501720420002,0
504,91,4,-10.852307383622886,0
505,89,4,-10.835077186048032,0
506,88,4,-10.839068947461488,0
507,93,4,-10.92798572974038,0
508,94,4,-10.935234272205589,0
509,96,4,-10.980272921629426,0
510,97,4,-10.987504726625916,0
511,96,4,-10.929005714066623,0
512,97,4,-10.906334035309788,0
513,96,4,-10.896067360247727,0
514,97,4,-10.823515593438264,0
515,94,4,-10.735181224352953,0
516,92,4,-10.63099525801742,0
517,93,4,-10.622887816028594,0
518,93,4,-10.613838469974517,0
519,92,4,-10.613114923308848,0
520,92,5,-10.391658124577045,0
521,92,5,-10.38335309390509,0
522,91,5,-10.406696283185479,0
523,90,5,-10.40544750484335,0
524,89,5,-10.394221791442869,0
525,87,5,-10.388372505936381,0
526,85,5,-10.342965082057235,0
527,84,5,-10.282249112773894,0
528,84,5,-10.34785132588446,0
529,83,5,-10.38037512164974,0
530,81,5,-10.38474172517967,0
531,80,5,-10.40740143269229,0
532,80,5,-10.405973897321463,0
533,78,5,-10.3937114260056,0
534,79,5,-10.385562364833595,0
535,78,6,-10.207242138895273,0
536,78,6,-10.198104912287949,0
537,78,7,-9.998790086664915,0
538,79,7,-10.002756983036637,0
539,80,7,-10.06346893063557,0
540,80,7,-10.033022203759431,0
541,81,7,-10.034429688449979,0
542,81,7,-9.980665172697185,0
543,82,7,-9.990054991299509,0
544,80,7,-9.97432379935515,0
545,81,7,-9.966629637537121,0
546,80,7,-9.977187552749037,0
547,81,7,-9.986471144038557,0
548,81,7,-9.947912095300673,0
549,82,7,-9.883429141413927,0
550,83,7,-9.946667808382989,0
551,82,7,-9.917742685933352,0
552,83,7,-9.906823710484861,0
553,84,7,-9.967934369909882,0
554,85,8,-9.766733353224394,0
555,87,8,-9.736928599835274,0
556,87,8,-9.737229327785847,0
557,84,8,-9.672322286896822,0
558,83,8,-9.671042502956746,0
559,83,9,-9.484516172727822,0
560,81,9,-9.506495671211002,0
561,81,8,-9.716173861534116,0
562,80,8,-9.721476374298096,0
563,79,8,-9.714236156265256,0
564,80,9,-9.509047133362769,0
565,79,9,-9.510575542363643,0
566,78,9,-9.409690338442443,0
567,78,9,-9.398161987717746,0
568,79,9,-9.53316375496554,0
569,78,9,-9.544650714971302,0
570,80,8,-9.856146626254795,0
571,81,8,-9.875024525279043,0
572,83,8,-9.882415214611528,0
573,83,8,-9.89058550542116,0
574,83,8,-9.888025575426576,0
575,81,8,-9.865403064665315,0
576,83,8,-9.906343196102618,0
577,82,8,-9.878683120164869,0
578,83,8,-9.908914764774797,0
579,83,8,-9.920833523081303,0
580,85,8,-9.915370032921311,0
581,87,8,-9.93972699090433,0
582,87,8,-9.94330384861612,0
583,89,8,-9.958086665601728,0
584,90,8,-9.95653834357643,0
585,91,8,-9.956681662734983,0
586,90,8,-9.954795486183164,0
587,91,8,-9.97863300292134,0
588,91,8,-10.01596273293042,0
589,91,8,-10.00959237697625,0
590,91,8,-10.011948492539048,0
591,92,8,-10.00160446815741,0
592,92,8,-10.01939854443991,0
593,94,8,-10.013321884606004,0
594,92,8,-10.011442178076864,0
595,93,8,-9.999169533749699,0
596,93,8,-9.99569814146149,0
597,93,8,-10.011464205251334,0
598,93,8,-10.018166197625515,0
599,92,7,-10.247096737419007,0
600,91,7,-10.234141706091282,0
601,93,7,-10.310048408019897,0
602,90,7,-10.323770935953018,0
603,95,7,-10.321282190223451,0
604,96,7,-10.32338907793915,0
605,98,7,-10.293651717910167,0
606,99,7,-10.284303460116861,0
607,96,7,-10.201968554516434,0
608,95,7,-10.21244072265303,0
609,94,7,-10.172254046800969,0
610,93,7,-10.231479549634336,0
611,93,8,-10.079971269771217,0
612,92,8,-10.103211789895415,0
613,92,8,-10.106690755082248,0
614,92,7,-10.425766041585801,0
615,93,7,-10.434311483101842,0
616,94,7,-10.404987697069286,0
617,95,7,-10.523889893310546,0
618,96,7,-10.573476107988235,0
619,96,7,-10.604332712964053,0
620,96,6,-10.815738519918916,0
621,97,6,-10.822212866268512,0
622,97,6,-10.800472196010347,0
623,98,6,-10.813259063449738,0
624,98,6,-10.823701915106412,0
625,98,6,-10.821664230131384,0
626,98,6,-10.834486631807444,0
627,98,6,-10.819199768439052,0
628,98,6,-10.769887998265265,0
629,98,6,-10.758908718443632,0
630,98,6,-10.753258657037376,0
631,99,6,-10.856179186680674,0
632,97,6,-10.866336223555802,0
633,97,6,-10.936373615706797,0
634,97,6,-11.054529796034332,0
635,98,5,-11.25392843633079,0
636,97,5,-11.253844503565544,0
637,99,4,-11.600398594746348,0
638,98,4,-11.587396816169855,0
639,96,4,-11.44941897868192,0
640,97,4,-11.417315328498598,0
641,96,4,-11.394675249841091,0
642,96,4,-11.395114828769085,0
643,95,4,-11.352536980750678,0
644,96,4,-11.352246524465441,0
645,94,4,-11.33063938491714,0
646,95,4,-11.358864324560523,0
647,93,4,-11.338050009367345,0
648,93,4,-11.336370789045688,0
649,92,4,-11.332317056715366,0
650,90,4,-11.270611926216718,0
651,90,4,-11.273947635758041,0
652,90,4,-11.27990596995568,0
653,90,4,-11.217969898423192,0
654,90,4,-11.194603714493747,0
655,89,4,-11.199028213559862,0
656,89,4,-11.180378787003514,0
657,89,4,-11.185194358416675,0
658,90,4,-11.208667980860112,0
659,90,3,-11.403915010413883,0
660,90,3,-11.425484807096002,0
661,89,3,-11.422259285569186,0
662,90,3,-11.510956915705915,0
663,91,3,-11.664761851157422,0
664,91,2,-11.876330943542714,0
665,92,2,-11.891182499638314,0
666,92,2,-11.900716992151494,0
667,92,2,-11.894739915934084,0
668,92,2,-11.76266215106189,0
669,92,2,-11.742156494658348,0
670,91,2,-11.635329153268216,0
671,89,2,-11.616105937765237,0
672,88,2,-11.605176926407456,0
673,87,2,-11.602899238585232,0
674,87,2,-11.606401788540838,0
675,87,2,-11.617799565347669,0
676,85,2,-11.57758900031304,0
677,87,2,-11.65255966741514,0
678,85,2,-11.626883090970038,0
679,85,2,-11.618502748119354,0
680,83,2,-11.629396072715044,0
681,82,2,-11.599113718477962,0
682,82,2,-11.596850496828795,0
683,81,2,-11.591559169020888,0
684,79,2,-11.651445637993929,0
685,79,2,-11.66381035209882,0
686,79,2,-11.711689831264016,0
687,79,2,-11.717242673227545,0
688,79,2,-11.69756070104694,0
689,78,2,-11.68393713528609,0
690,78,2,-11.672992750045177,0
691,77,2,-11.680549861085055,0
692,76,2,-11.66132424806702,0
693,74,2,-11.672315705566762,0
694,74,2,-11.67519016951215,0
695,72,2,-11.66558038911855,0
696,72,2,-11.679487988188143,0
697,71,2,-11.670412436016916,0
698,71,2,-11.66254708117139,0
699,71,2,-11.642835626684302,0
700,72,2,-11.703216926538104,0
701,69,2,-11.61671870311558,0
702,69,2,-11.609313256693001,0
703,65,2,-11.60692040397465,0
704,64,2,-11.5978158339864,0
705,63,2,-11.61735479543507,0
706,64,2,-11.651520784223434,0
707,62,2,-11.684718205240962,0
708,62,2,-11.693926924998044,0
709,63,2,-11.73931768998146,0
710,63,2,-11.694161334589955,0
711,65,1,-11.85291322137904,0
712,68,1,-11.8544617046442,0
713,68,1,-11.913046862336811,0
714,66,2,-11.679934562554717,0
715,66,2,-11.673842516170621,0
716,65,2,-11.646494409013151,0
717,66,2,-11.623703680801869,0
718,65,2,-11.585950289925217,0
719,65,2,-11.557747255514144,0
720,64,2,-11.559437565993903,0
721,63,2,-11.606475971717236,0
722,63,2,-11.638706481141924,0
723,63,2,-11.666724269166822,0
724,64,2,-11.66911719798064,0
725,64,2,-11.668490354829189,0
726,65,3,-11.445206335570571,0
727,65,3,-11.442298363102791,0
728,65,3,-11.431240470088953,0
729,66,3,-11.408569921927326,0
730,66,3,-11.398048470729822,0
731,64,3,-11.287265072702642,0
732,64,3,-11.279955326268547,0
733,64,3,-11.214075556357379,0
734,64,3,-11.099441644001004,0
735,63,3,-11.093722798966287,0
736,62,3,-11.093031963275433,0
737,60,3,-10.9542318065145,0
738,60,3,-10.97209768767571,0
739,60,3,-10.972790874600168,0
740,59,4,-10.786431084716556,0
741,58,4,-10.791868305762527,0
742,58,4,-10.822011923218486,0
743,59,4,-10.876478862973567,0
744,58,4,-10.872868114297269,0
745,58,4,-10.878092364385246,0
746,57,4,-10.827625783387303,0
747,57,4,-10.825655523772356,0
748,57,4,-10.833774395615698,0
749,57,4,-10.83274058365357,0
750,57,4,-10.827747262753606,0
751,57,4,-10.816929403658985,0
752,56,4,-10.811117994971394,0
753,57,4,-10.820287467451214,0
754,57,3,-11.092453343363525,0
755,56,3,-11.125203670953988,0
756,57,3,-11.14369090605521,0
757,57,3,-11.164648217068075,0
758,58,3,-11.126488536752582,0
759,58,3,-11.098351225433944,0
760,59,3,-11.051471885623334,0
761,59,3,-11.055452035670038,0
762,58,3,-10.978071828353285,0
763,57,3,-10.891995210586545,0
764,57,3,-10.942685731534601,0
765,57,4,-10.742663904685855,0
766,56,4,-10.750513934702518,0
767,55,4,-10.7482047360214,0
768,53,4,-10.749670540746095,0
769,52,4,-10.754441512082458,0
770,52,4,-10.756871347543118,0
771,51,4,-10.765661167096496,0
772,52,4,-10.949948668348668,0
773,53,4,-10.94915975043845,0
774,53,4,-10.937005610514998,0
775,54,4,-10.93837497300255,0
776,55,4,-10.932704512106774,0
777,54,4,-10.862807410256265,0
778,54,4,-10.86291503653109,0
779,54,4,-10.864467004999995,0
780,54,4,-10.878184539667247,0
781,54,4,-10.91653525772631,0
782,56,4,-10.934544093669295,0
783,55,4,-10.921680590848087,0
784,56,4,-10.944988007856843,0
785,57,4,-10.948966202495813,0
786,59,4,-10.904992445197225,0
787,59,4,-10.867365935168387,0
788,59,4,-10.845817167157412,0
789,59,4,-10.854892303765416,0
790,59,4,-10.866766269140598,0
791,60,5,-10.691436753830072,0
792,61,5,-10.731335648612378,0
793,62,5,-10.72715464374864,0
794,63,5,-10.73078819078481,0
795,64,5,-10.744703144695638,0
796,67,5,-10.787362991333126,0
797,67,5,-10.81635084216791,0
798,67,5,-10.876686922632514,0
799,68,6,-10.7176506550737,0
800,67,6,-10.688205531431494,0
801,68,6,-10.683974635617076,0
802,69,6,-10.7527285425058,0
803,69,6,-10.75899258383614,0
804,69,6,-10.757181090580524,0
805,69,6,-10.792102687615932,0
806,68,6,-10.757401819421588,0
807,68,6,-10.720195833538947,0
808,69,6,-10.72231974674862,0
809,68,6,-10.681125736015733,0
810,70,6,-10.679336622388062,0
811,71,6,-10.679711971205887,0
812,71,6,-10.79998786728948,0
813,71,6,-10.743237136488435,0
814,71,5,-10.872019748543318,0
815,72,5,-10.866186415469945,0
816,73,5,-10.857406446468174,0
817,73,5,-10.753657813108026,0
818,74,5,-10.817281572695908,0
819,74,5,-10.801252881602464,0
820,74,5,-10.79957702987176,0
821,74,5,-10.739660672869741,0
822,74,5,-10.716436917967137,0
823,73,5,-10.68534693502432,0
824,73,5,-10.674549447645244,0
825,72,5,-10.677369275656757,0
826,71,4,-10.884514618242797,0
827,71,4,-10.903406540325816,0
828,71,4,-10.9916919817481,0
829,76,4,-10.936440832324083,0
830,77,4,-10.929942267304476,0
831,78,4,-10.923566575285252,0
832,78,4,-10.913794438474474,0
833,78,4,-10.90679272912937,0
834,78,4,-10.89859549852055,0
835,79,4,-10.904139666752396,0
836,79,5,-10.695561195681748,0
837,81,5,-10.704686737527306,0
838,81,6,-10.485209778604206,0
839,81,7,-10.279825900186237,0
840,83,6,-10.476915246181186,0
841,84,6,-10.473612988182602,0
842,84,6,-10.473629581025298,0
843,85,6,-10.498291255115564,0
844,87,6,-10.492380288953834,0
845,87,6,-10.484895485482987,0
846,88,6,-10.489679798883257,0
847,88,7,-10.28769106851035,0
848,89,7,-10.288047331930931,0
849,90,7,-10.300893254487807,0
850,92,8,-10.131291028581915,0
851,93,8,-10.15250890510243,0
852,93,8,-10.172122635423957,0
853,92,8,-10.166613442703662,0
854,90,8,-10.114641657733616,0
855,89,8,-10.083892050748405,0
856,88,8,-10.064342444938955,0
857,88,8,-10.026073147776302,0
858,87,8,-10.023538667708095,0
859,86,8,-10.042778679744417,0
860,85,8,-10.030580144899067,0
861,85,8,-10.052135644702728,0
862,86,8,-10.070563404870327,0
863,86,8,-10.04168072774547,0
864,86,8,-10.00292234805375,0
865,88,7,-10.188873790671881,0
866,89,7,-10.188611147143659,0
867,90,7,-10.186564405686674,0
868,92,7,-10.291891443433578,0
869,92,7,-10.294996201455888,0
870,93,7,-10.308925810611543,0
871,94,7,-10.302473805929479,0
872,96,7,-10.11675253149539,0
873,96,7,-10.108728067384538,0
874,96,7,-10.119546199018416,0
875,97,7,-10.1446215329501,0
876,96,7,-10.147323761397061,0
877,96,7,-10.143022848679957,0
878,95,7,-10.145054776669202,0
879,95,7,-10.142944428890642,0
880,95,7,-10.171220143993317,0
881,94,7,-10.184813275049384,0
882,94,7,-10.184622907164034,0
883,95,7,-10.217002705315766,0
884,94,7,-10.165789244790968,0
885,94,7,-10.216801984553632,0
886,93,7,-10.225461317588145,0
887,93,7,-10.238975031222637,0
888,92,7,-10.241568393685757,0
889,92,7,-10.261233419317659,0
890,93,7,-10.303164636678156,0
891,93,6,-10.49787933183592,0
892,92,6,-10.460620428607163,0
893,92,6,-10.46615180325311,0
894,91,6,-10.460745876961644,0
895,91,6,-10.449203639696059,0
896,89,6,-10.39619493050402,0
897,90,7,-10.156177034023282,0
898,91,7,-10.11545942583346,0
899,91,6,-10.268063209606883,0
900,91,6,-10.238114975759979,0
901,91,6,-10.25717299390411,0
902,91,6,-10.283064467630622,0
903,91,6,-10.311327969443914,0
904,92,6,-10.315015081308005,0
905,91,6,-10.276294548733349,0
906,91,7,-10.068204492833253,0
907,91,7,-10.070408608132476,0
908,90,7,-10.041483681504605,0
909,90,7,-10.091686001936074,0
910,88,7,-10.085401857251522,0
911,86,7,-10.080206886559363,0
912,83,7,-9.947623388768076,0
913,83,7,-9.942773984898446,0
914,84,7,-9.95684842279136,0
915,84,7,-9.951026148316261,0
916,84,7,-9.95839335476577,0
917,83,7,-9.942867711041327,0
918,82,7,-9.881926695325134,0
919,81,7,-9.883724473927735,0
920,81,7,-9.892674730060575,0
921,81,7,-9.889676517200467,0
922,82,7,-9.90398316894078,0
923,82,7,-9.944863643592294,0
924,84,7,-10.040335312039907,0
925,85,7,-10.052285967548904,0
926,86,7,-10.061032412823256,0
927,87,7,-10.041647658205445,0
928,89,7,-9.957236764255162,0
929,83,7,-10.01618628927332,0
930,84,7,-10.092074233995614,0
931,83,7,-10.084017326152026,0
932,85,7,-10.14553261895567,0
933,86,7,-10.176117010704575,0
934,85,8,-9.972661591505824,0
935,85,8,-9.977620102704106,0
936,85,7,-10.18190019230467,0
937,84,7,-10.21226474345213,0
938,86,6,-10.47680556614834,0
939,86,5,-10.691572585250315,0
940,86,5,-10.765783783162295,0
941,86,5,-10.75762047823411,0
942,86,5,-10.746082276392638,0
943,84,5,-10.682211635507047,0
944,84,5,-10.766809613601028,0
945,85,5,-10.766923942282974,0
946,84,5,-10.774299518595997,0
947,85,4,-10.9758318486622,0
948,84,4,-10.969607812776863,0
949,83,4,-10.958285480572282,0
950,82,3,-11.252336483912764,0
951,82,3,-11.262481695498405,0
952,82,3,-11.239150408286388,0
953,83,3,-11.334756597037133,0
954,83,3,-11.34222054673594,0
955,83,3,-11.42063833833849,0
956,84,3,-11.491094405550713,0
957,85,3,-11.497732651987192,0
958,85,3,-11.497499122861978,0
959,86,3,-11.49416772589981,0
960,86,3,-11.498334855382081,0
961,87,3,-11.471215767741079,0
962,87,3,-11.443529734102723,0
963,86,3,-11.406903052322145,0
964,87,3,-11.417398263764142,0
965,85,3,-11.499120240934726,0
966,84,3,-11.471211234959005,0
967,84,3,-11.490805130565045,0
968,82,3,-11.415679066946863,0
969,84,3,-11.47919480911815,0
970,84,3,-11.47276635402739,0
971,84,3,-11.528476560133695,0
972,84,3,-11.540948214322327,0
973,84,3,-11.529972177535292,0
974,84,3,-11.5215330950253,0
975,83,3,-11.485094440623998,0
976,84,3,-11.50534782903552,0
977,86,3,-11.529347243016485,0
978,86,3,-11.545955227521182,0
979,88,3,-11.635600284541367,0
980,88,3,-11.594431906146287,0
981,90,3,-11.599023214613673,0
982,89,3,-11.582360825993057,0
983,87,3,-11.557424772848844,0
984,87,3,-11.531906870393154,0
985,86,3,-11.509806281486389,0
986,85,3,-11.548032676830053,0
987,87,3,-11.554763690093756,0
988,88,3,-11.574593556245565,0
989,88,3,-11.529576204029679,0
990,88,3,-11.465216410745741,0
991,87,3,-11.443942211598277,0
992,88,3,-11.519944604659202,0
993,92,3,-11.531382015705228,0
994,93,3,-11.553854390896916,0
995,93,3,-11.55332973406994,0
996,93,3,-11.599488247804995,0
997,93,2,-11.808575361238118,0
998,93,2,-11.825757943675397,0
999,94,2,-11.821438767236112,0
1000,95,2,-11.84292739281976,0
1001,97,2,-11.873771839461922,0
1002,98,2,-11.805050514691473,0
1003,97,2,-11.770688199168921,0
1004,97,2,-11.772522580079794,0
1005,97,2,-11.787926471566914,0
1006,97,1,-11.992791024918793,0
1007,97,1,-11.991003478574035,0
1008,97,1,-11.985013938422442,0
1009,97,1,-11.925424043801787,0
1010,98,1,-11.924185322349073,0
1011,99,1,-11.927221749891283,0
1012,98,1,-11.921800068940401,0
1013,97,1,-11.926987750030758,0
1014,97,1,-11.933998335235835,0
1015,98,1,-11.974472045284033,0
1016,98,1,-11.969942401195524,0
1017,97,1,-11.981342677888868,0
1018,97,1,-11.973531645381925,0
1019,97,1,-11.97678005186462,0
1020,97,1,-11.967230791515346,0
1021,97,1,-11.970118787151334,0
1022,97,1,-11.944036019496677,0
1023,97,1,-11.886299300612029,0
1024,98,1,-11.825380466338336,0
1025,99,1,-11.806391332995595,0
1026,99,1,-11.80119017406863,0
1027,98,1,-11.7979228768484,0
1028,97,1,-11.791924532341657,0
1029,96,1,-11.82444917081207,0
1030,95,1,-11.785469209281262,0
1031,95,1,-11.821861078157003,0
1032,94,1,-11.823813031891524,0
1033,93,1,-11.802337086436923,0
1034,93,0,-12.00211818562573,0
1035,91,0,-11.993029096507726,0
1036,93,0,-12.020669498727498,0
1037,93,0,-11.975583662122427,0
1038,92,0,-11.908441865734279,0
1039,92,0,-11.898940334342779,0
1040,91,0,-11.825741563911498,0
1041,90,0,-11.829327412628231,0
1042,90,1,-11.607821623237191,0
1043,90,2,-11.394133872495948,0
1044,90,2,-11.357873932300267,0
1045,90,2,-11.368977781786143,0
1046,95,2,-11.434983250096023,0
1047,95,2,-11.442109279436767,0
1048,97,2,-11.492604368438897,0
1049,97,2,-11.49077043902963,0
1050,97,2,-11.47165004770666,0
1051,96,2,-11.453099699454604,0
1052,96,2,-11.45915586258274,0
1053,95,2,-11.363114789179503,0
1054,95,2,-11.352402680150687,0
1055,94,2,-11.274600127153034,0
1056,94,2,-11.20857423736596,0
1057,93,2,-11.234280103681447,0
1058,94,2,-11.361942162760556,0
1059,93,2,-11.358026540163817,0
1060,94,2,-11.352022545496764,0
1061,94,2,-11.34896922293359,0
1062,96,2,-11.35674287021905,0
1063,96,2,-11.365566138599215,0
1064,95,2,-11.367075881779012,0
1065,95,2,-11.3326128441202,0
1066,95,2,-11.350274174396693,0
1067,95,2,-11.32598270583266,0
1068,95,2,-11.295871061791598,0
1069,94,2,-11.22651218364161,0
1070,94,2,-11.246945410326896,0
1071,94,2,-11.188229581096943,0
1072,90,3,-10.976370486486253,0
1073,95,3,-11.002782388522922,0
1074,94,3,-11.00922590906316,0
1075,95,3,-11.004483305612384,0
1076,94,3,-10.982639170183955,0
1077,93,3,-10.96282814411193,0
1078,92,3,-10.943371451370533,0
1079,91,3,-10.888493004168568,0
1080,92,3,-10.911969783433735,0
1081,90,3,-10.86843598470217,0
1082,91,3,-10.8679438569749,0
1083,91,3,-10.862139479488908,0
1084,92,3,-10.863540797811446,0
1085,92,3,-10.821008292855318,0
1086,93,3,-10.79415880082601,0
1087,91,3,-10.785194813607394,0
1088,91,3,-10.770743976616082,0
1089,90,3,-10.770055668077646,0
1090,91,4,-10.57113730408734,0
1091,91,4,-10.569965316174207,0
1092,89,4,-10.498032045951065,0
1093,86,4,-10.485893123893916,0
1094,85,4,-10.463613981694401,0
1095,86,4,-10.465021555436316,0
1096,85,4,-10.42678357997602,0
1097,87,4,-10.439890404891907,0
1098,87,4,-10.399859731863916,0
1099,85,4,-10.402075836562098,0
1100,84,4,-10.380301274685799,0
1101,81,4,-10.327695655680358,0
1102,80,4,-10.315519416226566,0
1103,80,4,-10.315126270620524,0
1104,80,4,-10.313781415456951,0
1105,80,4,-10.299996686184109,0
1106,80,4,-10.302270607388675,0
1107,82,4,-10.388484935161173,0
1108,82,4,-10.39458524729401,0
1109,84,4,-10.41367030882126,0
1110,83,4,-10.40332085973221,0
1111,82,4,-10.403308130662145,0
1112,82,4,-10.41280486323625,0
1113,82,4,-10.484416939436969,0
1114,82,4,-10.496410622806609,0
1115,82,4,-10.600236622471034,0
1116,81,4,-10.606606290648399,0
1117,81,4,-10.618855982767998,0
1118,82,4,-10.62764942597264,0
1119,82,4,-10.664439259222565,0
1120,82,4,-10.665334243967589,0
1121,82,4,-10.667975702024995,0
1122,81,4,-10.669183507117804,0
1123,81,4,-10.674933093901213,0
1124,80,4,-10.637963661353883,0
1125,78,4,-10.648393254125414,0
1126,78,4,-10.645515295837221,0
1127,79,4,-10.646817397680103,0
1128,79,4,-10.649811044787704,0
1129,80,4,-10.603046526199877,0
1130,80,4,-10.596343432961882,0
1131,80,4,-10.557982433799923,0
1132,80,4,-10.493979394668399,0
1133,79,4,-10.503339352396427,0
1134,79,4,-10.50667300877446,0
1135,80,4,-10.609894520808576,0
1136,79,4,-10.619350921421885,0
1137,79,4,-10.663320187792776,0
1138,79,4,-10.679001471686602,0
1139,80,4,-10.705569853280306,0
1140,80,4,-10.719037702844501,0
1141,79,4,-10.719758208317874,0
1142,79,3,-10.946178274522062,0
1143,80,2,-11.268344061299201,0
1144,79,2,-11.244914782448884,0
1145,79,2,-11.23699205567038,0
1146,75,2,-11.166316293172954,0
1147,73,2,-11.163700414915205,0
1148,73,2,-11.198594655542015,0
1149,72,2,-11.222461380655407,0
1150,71,2,-11.129490416714905,0
1151,72,2,-11.129053576562878,0
1152,72,2,-11.128165844287633,0
1153,73,2,-11.13977196294689,0
1154,74,2,-11.143853611199978,0
1155,74,2,-11.185565466199398,0
1156,75,2,-11.269564094739797,0
1157,76,2,-11.238241872435333,0
1158,75,2,-11.11319226510793,0
1159,75,2,-11.114831163171589,0
1160,74,2,-11.11928175245744,0
1161,74,2,-11.140234478911218,0
1162,74,2,-11.1278808390339,0
1163,73,2,-11.116781737829982,0
1164,72,2,-11.094463194325744,0
1165,72,2,-11.039837677487192,0
1166,72,2,-11.03615400269443,0
1167,73,2,-11.040028604863464,0
1168,72,2,-11.031763790458024,0
1169,73,2,-11.031895869403186,0
1170,72,2,-11.0125438045252,0
1171,72,2,-11.032614676496806,0
1172,73,1,-11.232183034662544,0
1173,68,1,-11.218807614363968,0
1174,69,1,-11.242863339852631,0
1175,68,2,-11.042813693843184,0
1176,68,2,-11.04530516242057,0
1177,68,3,-10.841116774511637,0
1178,69,3,-10.859773256128609,0
1179,69,3,-10.824067565656247,0
1180,72,3,-10.816250772558988,0
1181,72,3,-10.811345911698163,0
1182,73,3,-10.871151998190701,0
1183,74,3,-10.947859185703098,0
1184,74,3,-10.938755165845691,0
1185,74,3,-10.937602919380005,0
1186,74,3,-10.929410941091833,0
1187,74,3,-10.932384158019838,0
1188,74,3,-10.937218136234817,0
1189,75,3,-10.952465922426045,0
1190,76,2,-11.158065784475625,0
1191,77,2,-11.180383842737497,0
1192,77,2,-11.176019996605216,0
1193,77,2,-11.187442171459494,0
1194,79,2,-11.221304068926393,0
1195,79,2,-11.216880790880738,0
1196,78,2,-11.214007275082169,0
1197,76,2,-11.190858900560912,0
1198,76,2,-11.195413910299596,0
1199,75,3,-10.999794401651679,0
1200,75,3,-11.039910020740091,0
1201,75,3,-11.057575674493613,0
1202,74,3,-11.115594836076678,0
1203,75,3,-11.168591965798793,0
1204,74,4,-10.966795443475187,0
1205,73,4,-10.965926014705122,0
1206,73,4,-10.97535502913517,0
1207,71,4,-10.89762604139155,0
1208,71,4,-10.951236652966317,0
1209,70,4,-11.063342913372754,0
1210,71,4,-11.080166659325359,0
1211,72,4,-11.265330740350361,0
1212,73,5,-11.053847310013289,0
1213,73,5,-10.998945828593486,0
1214,74,5,-10.99429978081679,0
1215,73,5,-10.860108680032846,0
1216,73,5,-10.867403135565876,0
1217,74,5,-10.851016630807042,0
1218,73,5,-10.842771878400203,0
1219,72,5,-10.800331562433957,0
1220,74,5,-11.005960331984996,0
1221,75,5,-11.033408321724414,0
1222,76,5,-11.029587489061832,0
1223,76,5,-11.030307649012089,0
1224,78,5,-11.054221614136457,0
1225,77,5,-11.098381175606368,0
1226,77,5,-11.166989557383328,0
1227,76,5,-11.226508299463124,0
1228,76,6,-11.08127417014584,0
1229,75,6,-11.087264973045201,0
1230,75,6,-11.059433391783086,0
1231,74,6,-11.069938951724973,0
1232,75,6,-11.136881436713542,0
1233,75,6,-11.188067625776023,0
1234,76,6,-11.190016732817144,0
1235,77,6,-11.105671744738368,0
1236,76,6,-11.104418116010693,0
1237,76,6,-11.114145854787855,0
1238,77,6,-11.300756731262714,0
1239,78,6,-11.300643337043553,0
1240,78,6,-11.350628473968298,0
1241,79,6,-11.353374329087526,0
1242,79,6,-11.336310278726248,0
1243,78,6,-11.21529952063468,0
1244,79,6,-11.188845481215983,0
1245,80,6,-11.184638189673928,0
1246,79,6,-11.180971173749477,0
1247,82,6,-11.269992018821265,0
1248,81,6,-11.186821030565765,0
1249,80,6,-11.163132715497042,0
1250,80,6,-11.15472552875295,0
1251,79,6,-11.151287068020608,0
1252,79,6,-11.165538130229978,0
1253,78,6,-11.15811941076031,0
1254,78,6,-11.200953134938027,0
1255,78,6,-11.189067182354359,0
1256,80,6,-11.21153311220148,0
1257,82,6,-11.21527115007189,0
1258,82,6,-11.216828612108023,0
1259,84,6,-11.19757227825144,0
1260,85,6,-11.201845007633477,0
1261,85,6,-11.272372899557022,0
1262,86,6,-11.256134712957289,0
1263,89,6,-11.257926174292471,0
1264,88,6,-11.249839758007909,0
1265,88,6,-11.25705403755179,0
1266,89,6,-11.278601816298867,0
1267,89,6,-11.28190614533558,0
1268,89,6,-11.277137578267482,0
1269,89,6,-11.27961622210255,0
1270,88,7,-11.067364323587801,0
1271,88,7,-11.045974388212109,0
1272,88,7,-11.043904324785139,0
1273,88,7,-11.04940808692255,0
1274,87,7,-11.028318244315058,0
1275,89,6,-11.238438466423897,0
1276,89,6,-11.280152902063522,0
1277,90,5,-11.540812044430764,0
1278,89,5,-11.545936329197675,0
1279,90,5,-11.541381932309896,0
1280,85,5,-11.519266308563024,0
1281,85,5,-11.520046605958727,0
1282,85,5,-11.483141684423716,0
1283,84,5,-11.406089977658539,0
1284,84,5,-11.411485485291987,0
1285,85,5,-11.410147501311808,0
1286,86,5,-11.385300240988046,0
1287,87,5,-11.38651990118125,0
1288,86,5,-11.380267031220704,0
1289,87,5,-11.36482320261386,0
1290,88,5,-11.376535152679473,0
1291,86,5,-11.38347232506755,0
1292,87,5,-11.419503620511797,0
1293,86,5,-11.401493833631305,0
1294,85,5,-11.370477164851692,0
1295,85,5,-11.376446808898477,0
1296,86,5,-11.373372793357401,0
1297,87,5,-11.388903349625615,0
1298,88,5,-11.386349669367817,0
1299,89,4,-11.604193092505481,0
1300,90,4,-11.557369300197392,0
1301,94,4,-11.562865182206657,0
1302,94,4,-11.510618443331387,0
1303,93,4,-11.4599792133657,0
1304,94,3,-11.66667592299047,0
1305,94,3,-11.68028561479798,0
1306,94,3,-11.748751876792575,0
1307,94,3,-11.767818356218843,0
1308,96,3,-11.764524257110981,0
1309,95,3,-11.660299966141194,0
1310,95,3,-11.674417040458408,0
1311,94,3,-11.506884969965665,0
1312,94,2,-11.737272693272796,0
1313,94,2,-11.717943172866073,0
1314,93,2,-11.693198572577682,0
1315,92,2,-11.690986438380449,0
1316,91,2,-11.677245769839494,0
1317,90,2,-11.679943817443577,0
1318,90,2,-11.679845738007275,0
1319,90,2,-11.68342535904452,0
1320,87,2,-11.479843106088367,0
1321,86,2,-11.467148377435413,0
1322,85,2,-11.477239383841962,0
1323,84,2,-11.474631324470728,0
1324,82,2,-11.457923066302985,0
1325,82,2,-11.411073836892456,0
1326,82,2,-11.41583700715822,0
1327,83,2,-11.389248668321727,0
1328,83,1,-11.54095039675915,0
1329,83,1,-11.558973375623701,0
1330,82,1,-11.59886388172853,0
1331,82,1,-11.604577442248821,0
1332,83,1,-11.609109407711506,0
1333,83,1,-11.546507017464162,0
1334,84,1,-11.543849439893247,0
1335,83,1,-11.525852667307376,0
1336,83,1,-11.48711383865714,0
1337,84,1,-11.446288082566856,0
1338,84,1,-11.317080549537774,0
1339,81,1,-11.287863941107627,0
1340,81,1,-11.277496723203779,0
1341,80,1,-11.287807863899115,0
1342,80,1,-11.29010218986285,0
1343,80,1,-11.349203308643823,0
1344,79,1,-11.348943760603431,0
1345,79,1,-11.369239724707127,0
1346,79,1,-11.37815802011156,0
1347,78,1,-11.309482562807556,0
1348,80,1,-11.321044739832399,0
1349,80,1,-11.320205545126436,0
1350,80,1,-11.325355924756645,0
1351,81,1,-11.351561151776314,0
1352,81,1,-11.344853893575667,0
1353,81,1,-11.34036297075093,0
1354,82,1,-11.353420596007703,0
1355,82,1,-11.37005989642322,0
1356,79,1,-11.287457187381028,0
1357,79,1,-11.326485661019625,0
1358,79,2,-11.122549276356997,0
1359,77,2,-11.224552829737126,0
1360,77,2,-11.231499453543602,0
1361,76,2,-11.137228693881331,0
1362,76,2,-11.21362279565531,0
1363,74,2,-11.287179496121464,0
1364,75,2,-11.305859974788486,0
1365,74,2,-11.308885688882768,0
1366,74,2,-11.296417595008196,0
1367,74,2,-11.342325856166543,0
1368,74,3,-11.15749047150582,0
1369,74,3,-11.158220593352976,0
1370,75,2,-11.39186905118531,0
1371,76,2,-11.44159897186202,0
1372,75,2,-11.475579466626348,0
1373,75,2,-11.49971218502611,0
1374,77,2,-11.532525987192573,0
1375,77,2,-11.590953394917072,0
1376,77,2,-11.538225932112038,0
1377,78,2,-11.48100995460838,0
1378,79,2,-11.485465686035337,0
1379,79,2,-11.504915299637497,0
1380,79,2,-11.514572856783568,0
1381,80,2,-11.539646597483339,0
1382,79,3,-11.315597226272763,0
1383,79,3,-11.328922865595995,0
1384,81,4,-11.127925430126131,0
1385,81,4,-11.127893564531265,0
1386,79,4,-11.137387955939234,0
1387,80,4,-11.15198987908214,0
1388,80,4,-11.145127099558293,0
1389,79,4,-11.139151953802523,0
1390,77,5,-10.926458022849024,0
1391,77,5,-10.941444651536164,0
1392,77,5,-10.95249780743736,0
1393,78,5,-10.955046011213959,0
1394,79,5,-10.972092443584385,0
1395,79,5,-10.968057153755133,0
1396,79,5,-10.984757561465205,0
1397,78,5,-10.976639946849286,0
1398,78,5,-10.978840260852515,0
1399,77,5,-10.96340130897492,0
1400,76,5,-10.980842575143516,0
1401,74,5,-10.971594612113176,0
1402,73,5,-10.972707060580909,0
1403,74,5,-11.02919110368842,0
1404,74,5,-11.02141839696854,0
1405,75,5,-11.005558516514716,0
1406,75,5,-10.906418300230202,0
1407,76,5,-10.885774765451607,0
1408,76,5,-10.832612317397533,0
1409,75,5,-10.822971408217846,0
1410,75,5,-10.792005863365352,0
1411,74,5,-10.775399973418889,0
1412,75,5,-10.751555494719922,0
1413,76,5,-10.801617170708118,0
1414,77,5,-10.868555009386359,0
1415,78,5,-10.907968367681798,0
1416,79,5,-10.90754653344947,0
1417,80,5,-10.916081731839954,0
1418,81,5,-10.92597695749551,0
1419,81,5,-10.925710734633268,0
1420,83,5,-10.946240175742926,0
1421,85,5,-10.950024000851453,0
1422,85,5,-10.934923869972646,0
1423,87,6,-10.762997630146444,0
1424,87,6,-10.750898358374295,0
1425,87,6,-10.748032492310704,0
1426,88,6,-10.691678080138622,0
1427,90,6,-10.679193257361828,0
1428,89,6,-10.666898610897482,0
1429,90,6,-10.65251531019932,0
1430,92,6,-10.604741267486393,0
1431,94,6,-10.579933605928717,0
1432,94,6,-10.52191974562651,0
1433,94,6,-10.52532739687353,0
1434,93,6,-10.521832267221509,0
1435,94,6,-10.592336439236224,0
1436,94,6,-10.58980921200043,0
1437,93,6,-10.579711720648348,0
1438,92,6,-10.512651102132143,0
1439,93,6,-10.516855520537677,0
1440,93,6,-10.481568358031929,0
1441,93,6,-10.485103500505149,0
1442,94,6,-10.597784716977715,0
1443,93,6,-10.559706834533571,0
1444,93,6,-10.574395589526535,0
1445,92,6,-10.57905629998815,0
1446,92,6,-10.68913098767948,0
1447,91,6,-10.690017854427099,0
1448,90,6,-10.750989592648985,0
1449,90,6,-10.762259715532542,0
1450,91,6,-10.797663456304788,0
1451,91,6,-10.769645438121556,0
1452,91,6,-10.756328035174844,0
1453,92,6,-10.765340783062932,0
1454,91,6,-10.731177141065357,0
1455,91,6,-10.699404763665676,0
1456,92,6,-10.673176654532076,0
1457,90,6,-10.6279655939489,0
1458,91,5,-10.838360117279354,0
1459,91,5,-10.769809062746468,0
1460,91,5,-10.774595537424268,0
1461,91,5,-10.776785512479963,0
1462,91,5,-10.722403122120324,0
1463,90,5,-10.654692604979932,0
1464,89,5,-10.639826430052459,0
1465,90,5,-10.637611932125626,0
1466,91,5,-10.628404388015925,0
1467,90,5,-10.583157288230002,0
1468,90,4,-10.919616643411572,0
1469,90,4,-10.92889852892011,0
1470,89,4,-10.899341004081665,0
1471,89,4,-10.855736161199987,0
1472,89,4,-10.817199165598334,0
1473,89,4,-10.791660721370398,0
1474,88,4,-10.769970904521166,0
1475,88,4,-10.704018200297414,0
1476,89,4,-10.709337617108403,0
1477,87,4,-10.704791319010795,0
1478,87,4,-10.709243339729845,0
1479,87,4,-10.696941919874845,0
1480,87,4,-10.762159324900924,0
1481,86,4,-10.789697918840227,0
1482,88,3,-11.022405722625551,0
1483,89,3,-11.004436202801523,0
1484,86,2,-11.194720661540806,0
1485,86,2,-11.180395934895811,0
1486,87,2,-11.208593414066375,0
1487,87,2,-11.264088608181773,0
1488,87,2,-11.272113417301956,0
1489,91,2,-11.269291309790432,0
1490,92,1,-11.529446166867793,0
1491,94,1,-11.49523366189128,0
1492,95,1,-11.45251762221843,0
1493,95,1,-11.45051404654318,0
1494,94,1,-11.450233658667143,0
1495,96,1,-11.484835281217157,0
1496,96,1,-11.478608893610655,0
1497,96,1,-11.537889067738115,0
1498,95,1,-11.559363812083305,0
1499,97,1,-11.618221844327747,0
1500,96,1,-11.628890070807994,0
1501,95,1,-11.672024858255925,0
1502,96,1,-11.690341177752794,0
1503,95,1,-11.641308031157314,0
1504,97,1,-11.656029751065073,0
1505,98,2,-11.431334801687537,0
1506,98,2,-11.453235887233552,0
1507,98,2,-11.442618181087553,0
1508,96,2,-11.457828507932483,0
1509,95,3,-11.244111346887411,0
1510,95,3,-11.24855143507129,0
1511,94,3,-11.27794964675528,0
1512,93,3,-11.29176351027304,0
1513,93,3,-11.30816992157823,0
1514,92,3,-11.276240948159876,0
1515,93,3,-11.237100069315375,0
1516,93,3,-11.2357860109238,0
1517,93,3,-11.242230857741893,0
1518,92,3,-11.252636889048517,0
1519,93,3,-11.45120105928266,0
1520,92,3,-11.44230312630057,0
1521,90,3,-11.432884908817408,0
1522,89,3,-11.442841001695632,0
1523,88,2,-11.61473701473987,0
1524,88,2,-11.626672254157064,0
1525,87,2,-11.634236219589353,0
1526,87,2,-11.685481267889145,0
1527,85,2,-11.706191838825466,0
1528,85,2,-11.711073062597514,0
1529,85,2,-11.705803638603447,0
1530,83,2,-11.7233645302608,0
1531,83,2,-11.850804906152725,0
1532,84,2,-11.85547353831327,0
1533,84,2,-11.873787968251348,0
1534,83,2,-11.880737476993202,0
1535,83,2,-11.808443384905933,0
1536,82,3,-11.610686177527068,0
1537,83,3,-11.614062359597803,0
1538,84,3,-11.627805585540653,0
1539,84,3,-11.63236635496128,0
1540,84,3,-11.615941541738154,0
1541,85,3,-11.598324174946907,0
1542,85,3,-11.482930039761959,0
1543,85,3,-11.463022347809135,0
1544,86,3,-11.447497331339655,0
1545,87,3,-11.443619981336415,0
1546,86,3,-11.320882468215645,0
1547,87,3,-11.354378176892935,0
1548,87,3,-11.296313627246798,0
1549,88,3,-11.301329720118703,0
1550,88,3,-11.26035790961927,0
1551,89,3,-11.262192784050406,0
1552,90,3,-11.313239616115986,0
1553,89,3,-11.325641887053191,0
1554,89,3,-11.308732130192695,0
1555,90,3,-11.342233777080953,0
1556,90,3,-11.330889308711228,0
1557,91,3,-11.380603006944119,0
1558,90,3,-11.400799519099175,0
1559,92,3,-11.424074117604196,0
1560,91,3,-11.405068634506403,0
1561,91,3,-11.409475833673657,0
1562,91,3,-11.404550996668041,0
1563,90,3,-11.399690435320078,0
1564,91,3,-11.395307565244853,0
1565,90,3,-11.388016768793284,0
1566,89,4,-11.18545037838286,0
1567,90,4,-11.185579547727523,0
1568,93,4,-11.043628322711763,0
1569,95,4,-11.094375676868733,0
1570,96,4,-11.157142093825875,0
1571,96,4,-11.154840235930978,0
1572,96,4,-11.159414842200817,0
1573,97,4,-11.154554663880885,0
1574,95,4,-11.164235673858702,0
1575,94,4,-11.167316361747087,0
1576,94,4,-11.18589718579227,0
1577,95,4,-11.190108061145128,0
1578,93,4,-11.157678031104387,0
1579,94,4,-11.181224741847455,0
1580,94,4,-11.096354965327084,0
1581,94,4,-11.04390976774734,0
1582,92,4,-11.059654826500596,0
1583,92,4,-11.1464917609151,0
1584,92,4,-11.156754606744112,0
1585,91,4,-11.177625664007007,0
1586,90,4,-11.15703432890636,0
1587,90,4,-11.12102061250776,0
1588,90,4,-11.126973352372111,0
1589,88,4,-11.201821114820302,0
1590,87,4,-11.152055971517145,0
1591,85,4,-11.187467303542194,0
1592,85,4,-11.176865301096973,0
1593,87,4,-11.220216967455922,0
1594,87,4,-11.232981764446555,0
1595,85,4,-11.301315600182953,0
1596,86,4,-11.355833850288452,0
1597,88,4,-11.412040145891606,0
1598,89,4,-11.388256828020035,0
1599,87,4,-11.338100038197458,0
1600,88,4,-11.344655110274015,0
1601,89,4,-11.28883963895482,0
1602,88,4,-11.253332446783245,0
1603,88,4,-11.242553348923861,0
1604,89,4,-11.226555293791948,0
1605,87,3,-11.46579471817368,0
1606,88,3,-11.50975209804767,0
1607,88,3,-11.531508500728545,0
1608,89,3,-11.543083386563717,0
1609,91,2,-11.865580393019734,0
1610,92,2,-11.874771870624125,0
1611,94,2,-11.871918523348866,0
1612,96,2,-11.871901459481535,0
1613,96,2,-11.79896672154766,0
1614,101,2,-11.751774033193167,0
1615,101,2,-11.760487320839703,0
1616,106,2,-11.798926914475974,0
1617,106,2,-11.784796806309162,0
1618,106,2,-11.764456672695216,0
1619,105,2,-11.56422097581923,0
1620,106,2,-11.562164706434723,0
1621,106,2,-11.59809377527678,0
1622,111,2,-11.713727247591969,0
1623,113,2,-11.7289510451833,0
1624,113,2,-11.720270585736273,0
1625,114,2,-11.710897305713532,0
1626,114,2,-11.667270318805572,0
1627,115,2,-11.70343111719024,0
1628,116,2,-11.708856060624953,0
1629,115,2,-11.713676015854116,0
1630,114,2,-11.72290558586788,0
1631,115,2,-11.700165582327243,0
1632,114,2,-11.688873349164721,0
1633,117,2,-11.732236786632534,0
1634,117,2,-11.770027521105883,0
1635,118,2,-11.798154890011904,0
1636,120,1,-12.00478067677843,0
1637,120,1,-11.994773264320965,0
1638,119,1,-11.97591992722642,0
1639,120,1,-12.025660798292751,0
1640,120,1,-12.027588020245188,0
1641,120,1,-12.025189185640924,0
1642,120,1,-12.026938305422897,0
1643,120,1,-12.046268406490203,0
1644,119,1,-12.076200332123156,0
1645,118,1,-12.11615968214464,0
1646,118,1,-12.113476125766748,0
1647,119,1,-12.116054529574628,0
1648,117,1,-12.103277461480374,0
1649,117,1,-12.098448432252521,0
1650,116,1,-12.114827855342618,0
1651,115,2,-11.980327411935205,0
1652,114,2,-11.982615932656879,0
1653,115,2,-11.965441987745637,0
1654,116,2,-11.95800742162072,0
1655,117,2,-11.927055606238005,0
1656,116,2,-11.94153328884875,0
1657,116,2,-11.905148676618692,0
1658,120,2,-11.910039159672854,0
1659,119,2,-11.872639177732585,0
1660,122,2,-11.894849188884733,0
1661,125,2,-11.919024665826079,0
1662,125,3,-11.717228754159207,0
1663,125,4,-11.516524972356557,0
1664,126,4,-11.568785652786012,0
1665,126,4,-11.569331266883607,0
1666,129,3,-11.792440460556262,0
1667,131,3,-11.794270559037443,0
1668,127,3,-11.812437087894436,0
1669,126,3,-11.836408770013326,0
1670,125,3,-11.813120078897951,0
1671,127,3,-11.84174666983938,0
1672,127,3,-11.855680561862464,0
1673,127,3,-11.856846327809805,0
1674,128,3,-11.83620461715698,0
1675,131,3,-11.826567710627316,0
1676,132,3,-11.827726282402756,0
1677,133,3,-11.892946078229189,0
1678,136,3,-11.907910860816239,0
1679,135,3,-11.948047287611544,0
1680,134,3,-11.971926472544014,0
1681,136,3,-12.009341794292151,0
1682,136,4,-11.759099385571417,0
1683,137,4,-11.700717100371897,0
1684,138,4,-11.731020221314012,0
1685,138,4,-11.730727875882684,0
1686,141,4,-11.78311280604273,0
1687,141,4,-11.740949581480441,0
1688,141,4,-11.730427037096439,0
1689,139,4,-11.659614958123742,0
1690,139,4,-11.682960603264867,0
1691,141,4,-11.695844166101038,0
1692,140,4,-11.736376483130037,0
1693,140,4,-11.734233775119362,0
1694,140,4,-11.760036094027337,0
1695,141,4,-11.671225860127146,0
1696,140,4,-11.604365140942509,0
1697,140,4,-11.5343981737923,0
1698,139,4,-11.533960460902392,0
1699,139,4,-11.546704548259196,0
1700,139,4,-11.575001334338603,0
1701,139,4,-11.588866700310646,0
1702,142,4,-11.698141965292688,0
1703,144,4,-11.723860988027571,0
1704,145,4,-11.805709664398908,0
1705,146,4,-11.787950110165355,0
1706,146,4,-11.815433040133712,0
1707,149,4,-11.79242481040239,0
1708,149,4,-11.761547720962994,0
1709,150,4,-11.63776597135436,0
1710,150,4,-11.619533712962028,0
1711,149,4,-11.586630481711024,0
1712,150,4,-11.596815885268088,0
1713,150,4,-11.618434494641896,0
1714,145,4,-11.655861656916734,0
1715,145,4,-11.666991824843524,0
1716,141,4,-11.675433726549505,0
1717,141,4,-11.686791566517234,0
1718,141,4,-11.715045755866168,0
1719,141,4,-11.763028563164353,0
1720,141,4,-11.843913482405542,0
1721,142,4,-11.85424808777773,0
1722,139,4,-11.741640254354474,0
1723,140,4,-11.75804143205714,0
1724,141,4,-11.795733416159864,0
1725,141,4,-11.818492240897415,0
1726,143,4,-11.841269983096359,0
1727,144,4,-11.89019555216491,0
1728,145,4,-11.90023394923675,0
1729,145,4,-11.899852605211734,0
1730,148,4,-11.904706140298126,0
1731,150,4,-11.872927030572054,0
1732,149,4,-11.877399819262145,0
1733,146,4,-11.823338840804695,0
1734,147,4,-11.78105306837177,0
1735,145,4,-11.75460484232807,0
1736,148,4,-11.767944289214133,0
1737,148,4,-11.81468768608713,0
1738,149,4,-11.912622440574882,0
1739,148,4,-11.911634406063317,0
1740,148,4,-11.907396668167353,0
1741,148,4,-11.916793875489713,0
1742,148,4,-11.94270959733081,0
1743,148,4,-11.926580248470307,0
1744,148,4,-11.904286386386396,0
1745,148,4,-11.862495353034376,0
1746,149,4,-11.87387607491064,0
1747,148,4,-11.889645027482985,0
