Episode,Step,Avg_Success,Avg_Reward,Avg_Cost
0,28,0,-11.01334521074295,0
1,132,0,-10.29984331307411,0
2,249,0,-12.901409643300353,0
3,251,25,-8.846716718968722,0
4,236,20,-9.167173029677846,0
5,256,16,-9.79662160414257,0
6,226,14,-9.943172721435328,0
7,240,12,-10.241298304577166,0
8,242,11,-10.260226855655507,0
