Episode,Step,Avg_Success,Avg_Reward,Avg_Cost
0,28,0,-11.339548850548269,0
1,37,0,-41.73487881109715,0
2,35,0,-37.629848225410775,0
3,52,0,-42.5843044826329,0
4,45,0,-40.24599155714514,0
5,47,0,-40.17484622650545,0
6,60,0,-57.76269826253657,0
7,55,0,-52.42669327600155,0
8,49,0,-46.14332976958291,0
9,68,0,-51.983839243974145,0
10,64,0,-50.37830241229269,0
11,76,0,-40.713638539798616,0
12,78,0,-49.90128801482693,0
13,78,0,-50.64340465609565,0
14,75,0,-49.92797515536672,0
15,82,0,-52.940290128766435,0
16,86,0,-65.15155360683315,0
17,91,0,-82.67602902456828,0
18,90,0,-83.15850184236929,0
19,101,0,-101.73493266463022,0
20,103,0,-106.96726665538247,0
21,99,0,-102.24516580485033,0
22,95,0,-97.86886218771295,0
23,94,0,-95.1998905826721,0
24,92,0,-94.14316183519693,0
25,89,0,-90.63046704353846,0
26,85,0,-87.27378307896296,0
27,82,0,-84.15686225471428,0
28,80,0,-82.06781665432469,0
29,82,0,-81.86753795923885,0
30,80,3,-80.61241734977474,0
31,79,3,-80.41419896745884,0
32,86,3,-92.86860732494429,0
33,85,2,-91.50358242239513,0
34,83,2,-88.84711408474632,0
35,89,2,-101.49205005565203,0
36,88,2,-99.72789677398464,0
37,86,2,-96.94498811938733,0
38,84,2,-95.87373674045864,0
39,83,2,-94.6896640524736,0
40,84,2,-98.08590556760518,0
41,89,2,-108.36772772455329,0
42,94,2,-112.20095864391911,0
43,94,2,-112.87726901898577,0
44,94,2,-110.90474481762173,0
45,93,2,-109.48888979021547,0
46,95,2,-108.8196793698736,0
47,93,2,-106.55260271633456,0
48,97,2,-112.35804894387324,0
49,96,2,-111.16850566684607,0
50,95,1,-109.48749036839806,0
