Episode,Step,Avg_Success,Avg_Reward,Avg_Cost
0,28,0,-2.641517708194255,0
1,132,0,-6.657222293591442,0
2,116,33,-74.15162327531974,0
3,131,25,-121.01583506400891,0
4,124,20,-93.04687064067012,0
5,154,16,-120.79888280060204,0
6,132,28,-103.39904240051604,0
7,131,25,-94.34661162172492,0
8,150,22,-107.55058942191945,0
9,145,20,-102.67332593394113,0
10,149,18,-110.19793741366497,0
11,138,16,-102.47966525044205,0
12,128,15,-94.16046962405684,0
13,120,14,-87.49355745334253,0
14,113,13,-81.56029869145006,0
15,108,18,-81.05253441188381,0
16,118,17,-99.83711112955574,0
17,112,16,-96.19263302670032,0
18,108,15,-92.66248610509675,0
19,103,15,-87.91680864966848,0
20,102,14,-86.91461700175753,0
21,99,13,-85.07431588297142,0
22,97,13,-87.31370239274226,0
23,102,12,-93.00522167202713,0
24,102,12,-92.26509070366487,0
