Episode,Step,Avg_Success,Avg_Reward,Avg_Cost
0,28,0,-11.01334521074295,0
1,132,0,-10.29984331307411,0
2,249,0,-12.84592677146989,0
3,251,25,-8.612328995239707,0
4,236,20,-8.979662850694634,0
5,256,16,-9.689360248176241,0
6,226,14,-9.851234416321333,0
7,240,12,-10.170543598648901,0
8,242,11,-10.19733378371927,0
9,270,10,-11.778394065502875,0
10,260,9,-12.154205632775472,0
11,242,8,-11.983981608543786,0
12,225,7,-11.954532922790595,0
13,210,7,-11.902422677984402,0
14,236,6,-11.46721719473282,0
15,234,6,-11.479895541591937,0
16,221,5,-11.621126944747036,0
17,220,5,-12.235018942577135,0
18,210,5,-12.253336288745615,0
19,230,5,-12.117755990743476,0
20,224,4,-12.05031369678164,0
21,218,4,-12.143658490392149,0
22,211,4,-12.303273322381004,0
23,214,4,-12.59812897378441,0
24,206,4,-12.53968050988852,0
25,198,3,-12.527240083582,0
26,193,7,-12.126691094751148,0
27,191,7,-12.116289456302662,0
28,191,10,-11.315637968531034,0
29,204,10,-11.040230490044646,0
30,201,9,-11.001887238307818,0
31,200,9,-11.035543673467535,0
32,196,9,-11.008074362280777,0
33,199,8,-11.01091062954164,0
34,195,8,-11.184876733770619,0
35,197,8,-11.37983675897311,0
36,193,8,-11.34092750360828,0
37,189,7,-11.30789048283468,0
38,188,7,-11.40896659117959,0
39,187,7,-11.391091607904352,0
40,183,9,-10.869357666248147,0
41,184,9,-11.026074533047199,0
42,185,9,-11.096268386949694,0
43,189,9,-11.306497730982498,0
44,185,8,-11.280742184372137,0
45,193,8,-11.325997222963291,0
46,189,8,-11.293717598796073,0
47,185,8,-11.268746988972701,0
48,184,8,-11.222775521436688,0
49,180,8,-11.20155987232845,0
50,178,7,-11.236381461873407,0
51,175,7,-11.253732589770213,0
52,172,7,-11.265015863329443,0
53,170,7,-11.305018087994325,0
54,168,7,-11.283724303988263,0
55,167,7,-11.279137689513972,0
56,164,8,-10.90581948443478,0
57,165,8,-10.901258838049444,0
58,164,8,-10.956676311354054,0
59,166,8,-10.992501534828486,0
60,170,8,-11.026872595009005,0
61,168,8,-11.061808429074423,0
62,166,7,-11.093642387045321,0
63,166,7,-11.114393617288345,0
64,165,9,-10.779655856955001,0
65,163,9,-10.765394904477075,0
66,162,8,-10.840154382006041,0
67,159,8,-10.838300791727397,0
68,159,8,-10.823387054036619,0
69,161,8,-10.831830340930688,0
70,158,8,-10.821380848632352,0
71,158,8,-10.79093373123138,0
72,156,8,-10.818307519936354,0
73,154,8,-10.892201631761116,0
74,154,8,-10.927690364840226,0
75,160,7,-10.836688057875671,0
76,165,7,-10.837322444628468,0
77,167,8,-10.559754400921058,0
78,165,8,-10.596656495305744,0
79,165,8,-10.729211017500495,0
80,164,8,-10.76208260110256,0
81,162,8,-10.800854764834044,0
82,162,8,-10.85758950499849,0
83,164,8,-10.8665434258114,0
84,166,8,-10.858893214152207,0
85,169,8,-10.93283771912975,0
86,168,8,-10.99538544664047,0
87,168,9,-10.816824085035305,0
88,169,8,-10.816252163796674,0
89,170,8,-10.822664455002343,0
90,172,8,-10.911697346977672,0
91,171,8,-10.90563071680386,0
92,171,8,-10.914085595665243,0
93,172,8,-10.909260000957133,0
94,170,8,-10.902293534059332,0
95,172,8,-10.889173459576874,0
96,171,8,-10.927424118640308,0
97,170,9,-10.713150739951946,0
98,172,9,-10.70388910388892,0
99,170,9,-10.694459532245812,0
100,174,9,-10.76802387962192,0
101,176,9,-10.800164270665464,0
102,175,9,-10.808984499800141,0
103,174,8,-10.965601646367604,0
104,173,8,-11.024634209968028,0
105,169,8,-11.017981129038148,0
106,171,8,-11.223227378903086,0
107,170,8,-11.279530921697196,0
108,167,9,-11.075195204353747,0
109,163,9,-10.922764176242167,0
110,162,9,-10.864131318648512,0
111,162,9,-10.88441591174024,0
112,162,9,-10.892543498585162,0
113,162,9,-10.885443493150765,0
114,156,9,-10.941786108019764,0
115,154,9,-10.93027262802666,0
116,154,9,-10.891464334074374,0
117,152,9,-10.766783408511309,0
118,152,9,-10.810415919652606,0
119,150,9,-10.834741085653928,0
120,149,10,-10.626589518837001,0
121,148,11,-10.379452965984731,0
122,149,11,-10.34335091316643,0
123,146,11,-10.249079862039832,0
124,146,11,-10.244228689466622,0
125,146,11,-10.224262244832664,0
126,150,10,-10.348075475900561,0
127,151,10,-10.34000883328822,0
128,149,9,-10.576886340943009,0
129,144,9,-10.661959263842851,0
130,143,9,-10.669096793651727,0
131,141,9,-10.651517667770294,0
132,140,9,-10.655009483467607,0
133,137,9,-10.65850967266145,0
134,137,9,-10.59889662092152,0
135,138,9,-10.52714235379103,0
136,143,9,-10.580117580308944,0
137,148,9,-10.54094583661416,0
138,149,9,-10.49439304948285,0
139,149,9,-10.548605044224171,0
140,149,8,-10.751375013543276,0
141,148,8,-10.763263067439318,0
142,147,8,-10.77880643648994,0
143,143,8,-10.6809632519356,0
144,144,8,-10.761748045289814,0
145,140,8,-10.740301891027746,0
146,145,8,-10.757045151998339,0
147,146,8,-10.75251753843385,0
148,146,8,-10.827723304186401,0
149,146,8,-10.84800795201963,0
150,150,8,-10.858035438192665,0
151,151,8,-10.846671190590799,0
152,153,8,-10.863998427246747,0
153,153,8,-10.835213977309525,0
154,152,8,-10.835210296492397,0
155,153,8,-10.813129630032837,0
156,155,7,-11.037092104793844,0
157,153,7,-11.047275608173187,0
158,157,7,-11.25434396708202,0
159,155,7,-11.223886638868807,0
160,157,7,-11.100206018591638,0
161,162,7,-11.107478183795212,0
162,162,7,-11.07619294859397,0
163,160,7,-11.064591929524655,0
164,163,6,-11.426249412752265,0
165,164,6,-11.483556566963548,0
166,165,6,-11.496913176014182,0
167,167,6,-11.51601101077306,0
168,167,6,-11.520751076383469,0
169,169,6,-11.603010732650157,0
170,170,7,-11.425575659322915,0
171,173,7,-11.465115531806884,0
172,173,7,-11.456281325832663,0
173,174,8,-11.191222856562256,0
174,174,8,-11.151778078145975,0
175,170,8,-11.210294043371196,0
176,165,8,-11.198801773879286,0
177,166,7,-11.435242131455539,0
178,167,7,-11.404534895706766,0
179,165,7,-11.294771413320058,0
180,169,8,-11.058206334091688,0
181,170,8,-11.026112594440484,0
182,170,8,-10.966067785585308,0
183,168,8,-10.965589680374768,0
184,165,8,-10.96618728949895,0
185,167,8,-10.898891449327015,0
186,169,8,-10.850034541106488,0
187,169,8,-10.790726380244875,0
188,169,8,-10.786912435900833,0
189,169,8,-10.789074701549673,0
190,165,8,-10.69810524909618,0
191,168,8,-10.727212759589099,0
192,166,8,-10.712474467693234,0
193,164,8,-10.706664358826782,0
194,170,8,-10.717983549513486,0
195,172,8,-10.784892458763268,0
196,172,8,-10.741132325502777,0
197,176,7,-10.969298121209883,0
198,179,7,-10.989635327269102,0
199,179,7,-10.989928472066188,0
200,176,7,-10.90845081747439,0
201,175,7,-10.899033149753237,0
202,172,7,-10.813007137802266,0
203,170,7,-10.795754236997748,0
204,170,7,-10.730815508442186,0
205,172,7,-10.692666282778646,0
206,170,7,-10.527993916160133,0
207,169,8,-10.279694855983402,0
208,170,7,-10.478615094431905,0
209,170,7,-10.481778142657307,0
210,175,7,-10.462301497091794,0
211,176,7,-10.441090878368641,0
212,182,7,-10.32892476980486,0
213,184,7,-10.342607438906098,0
214,185,7,-10.329584354497456,0
215,185,7,-10.326776560318137,0
216,186,7,-10.33047641679373,0
217,190,8,-10.142396113329971,0
218,192,8,-10.077241433151567,0
219,189,8,-10.061140120380724,0
220,189,7,-10.264224980103458,0
221,191,6,-10.48405967328676,0
222,192,6,-10.552962590679847,0
223,192,6,-10.552964280427659,0
224,193,6,-10.568176826283777,0
225,194,6,-10.593370756213869,0
226,190,6,-10.554347561163867,0
227,190,6,-10.557611671184269,0
228,190,6,-10.521615803722225,0
229,192,6,-10.541565068943465,0
230,194,6,-10.599529514381969,0
231,195,6,-10.605315424134815,0
232,195,6,-10.601533882667503,0
233,196,6,-10.591957372243249,0
234,199,6,-10.584723680210079,0
235,197,6,-10.588337829952682,0
236,192,6,-10.542222302634443,0
237,186,6,-10.581570876234737,0
238,185,6,-10.58511280365273,0
239,184,6,-10.512524708546485,0
240,187,6,-10.518777166792479,0
241,186,6,-10.434684825836534,0
242,187,6,-10.375709629996534,0
243,188,6,-10.373336133279794,0
244,188,7,-10.090741861286338,0
245,187,7,-10.07704453413051,0
246,181,7,-10.072124859304367,0
247,183,7,-10.094191156142172,0
248,184,7,-10.042325391191657,0
249,186,7,-10.041454131717499,0
250,182,7,-10.014553573002752,0
251,180,7,-10.026233704533036,0
252,180,7,-10.010395076907452,0
253,181,7,-9.993732966353711,0
254,183,7,-10.04379489538413,0
255,181,7,-10.082262411679324,0
256,179,7,-10.069645911552008,0
257,179,7,-10.063942261130268,0
258,175,7,-9.849744194332835,0
259,174,8,-9.650562001218555,0
260,169,8,-9.76042043300843,0
261,166,8,-9.73228465130877,0
262,167,8,-9.745461303868051,0
263,169,8,-9.754060414172526,0
264,165,8,-9.615395149877425,0
265,164,8,-9.571663727889772,0
266,163,8,-9.633456781659124,0
267,162,8,-9.61121500643432,0
268,164,8,-9.608197195320484,0
269,161,8,-9.51360776822221,0
270,160,7,-9.688652696012078,0
271,157,7,-9.663866493437824,0
272,159,7,-9.65632565839487,0
273,160,6,-9.873884022545752,0
274,160,6,-9.873598590227543,0
275,160,6,-9.884394162498888,0
276,160,6,-9.88930118233126,0
277,156,6,-9.859208775460418,0
278,155,6,-9.856083753629383,0
279,155,6,-9.859594886203942,0
280,152,5,-10.060748094863055,0
281,152,5,-10.052397190465088,0
282,152,5,-10.073789937564847,0
283,150,5,-10.074612054215189,0
284,151,5,-10.110133356330154,0
285,147,5,-10.207735081005094,0
286,145,5,-10.205099005300161,0
287,146,4,-10.409854287753102,0
288,144,4,-10.440587860217208,0
289,142,4,-10.510202366088981,0
290,142,4,-10.53885300622308,0
291,140,4,-10.529105847126718,0
292,141,4,-10.606490173747895,0
293,143,4,-10.655144096974846,0
294,138,4,-10.651082388701315,0
295,134,4,-10.60912407726824,0
296,135,4,-10.637832995532985,0
297,130,4,-10.618416412969824,0
298,127,4,-10.622692332319254,0
299,127,4,-10.626944832985398,0
300,128,4,-10.64471427458751,0
301,125,4,-10.63157125653815,0
302,128,4,-10.647101049597023,0
303,128,4,-10.651317981218572,0
304,130,4,-10.671595916069743,0
305,131,4,-10.684896108639714,0
306,134,4,-10.692888671953677,0
307,134,3,-10.860790869452712,0
308,134,3,-10.863415077773565,0
309,134,3,-10.863318220479961,0
310,129,3,-10.943845147943016,0
311,129,4,-10.791697552605804,0
312,126,4,-10.898848403282697,0
313,123,4,-10.905325037917194,0
314,123,4,-10.909993308584983,0
315,125,4,-10.910895878489312,0
316,125,4,-10.906831569525778,0
317,122,3,-11.090422770226418,0
318,119,3,-11.084800775700982,0
319,120,3,-11.084288852005182,0
320,121,3,-11.098106143827852,0
321,120,3,-11.084871830222546,0
322,118,3,-10.992824208624182,0
323,118,3,-10.993935567482053,0
324,120,3,-11.029374645325717,0
325,120,3,-11.004965879707395,0
326,120,3,-11.005366165031969,0
327,118,3,-10.990398402528344,0
328,118,3,-11.004043269590438,0
329,118,3,-10.98311993449837,0
